<?xml version="1.0" encoding="UTF-8" standalone="no"?>
<svg
   xmlns:dc="http://purl.org/dc/elements/1.1/"
   xmlns:cc="http://creativecommons.org/ns#"
   xmlns:rdf="http://www.w3.org/1999/02/22-rdf-syntax-ns#"
   xmlns:svg="http://www.w3.org/2000/svg"
   xmlns="http://www.w3.org/2000/svg"
   xmlns:sodipodi="http://sodipodi.sourceforge.net/DTD/sodipodi-0.dtd"
   xmlns:inkscape="http://www.inkscape.org/namespaces/inkscape"
   viewBox="-181 304.9 233 233"
   version="1.1"
   id="svg88"
   sodipodi:docname="ideas_espaciales.svg"
   inkscape:version="0.92.4 (5da689c313, 2019-01-14)"
   inkscape:export-filename="/home/milton/Escritorio/ideas_espaciales.png"
   inkscape:export-xdpi="195.2"
   inkscape:export-ydpi="195.2">
  <metadata
     id="metadata94">
    <rdf:RDF>
      <cc:Work
         rdf:about="">
        <dc:format>image/svg+xml</dc:format>
        <dc:type
           rdf:resource="http://purl.org/dc/dcmitype/StillImage" />
        <dc:title />
      </cc:Work>
    </rdf:RDF>
  </metadata>
  <defs
     id="defs92" />
  <sodipodi:namedview
     pagecolor="#ffffff"
     bordercolor="#666666"
     borderopacity="1"
     objecttolerance="10"
     gridtolerance="10"
     guidetolerance="10"
     inkscape:pageopacity="0"
     inkscape:pageshadow="2"
     inkscape:window-width="960"
     inkscape:window-height="1016"
     id="namedview90"
     showgrid="false"
     inkscape:zoom="2.8648447"
     inkscape:cx="124.07338"
     inkscape:cy="111.15146"
     inkscape:window-x="960"
     inkscape:window-y="27"
     inkscape:window-maximized="0"
     inkscape:current-layer="g348" />
  <g
     id="g348"
     style="fill:#f2f2f2">
    <g
       style="fill:#f2f2f2"
       transform="matrix(0.93485404,0,0,0.94405523,12.086569,287.01753)"
       id="g1410">
      <ellipse
         id="ellipse96"
         ry="0.81287014"
         rx="0.8274945"
         cy="239.80875"
         cx="-185.33217"
         style="fill:#f2f2f2;stroke-width:0.60934794" />
      <ellipse
         id="ellipse98"
         ry="0.37779573"
         rx="0.3838892"
         cy="246.39641"
         cx="-177.32594"
         style="fill:#f2f2f2;stroke-width:0.60934794" />
      <ellipse
         id="ellipse100"
         ry="0.78301209"
         rx="0.79763645"
         cy="210.84583"
         cx="-152.27321"
         style="fill:#f2f2f2;stroke-width:0.60934794" />
      <ellipse
         id="ellipse102"
         ry="0.20291287"
         rx="0.20656894"
         cy="20.297247"
         cx="-149.99852"
         style="fill:#f2f2f2;stroke-width:0.60934794" />
      <ellipse
         id="ellipse104"
         ry="0.69709408"
         rx="0.70928103"
         cy="258.20679"
         cx="-156.11394"
         style="fill:#f2f2f2;stroke-width:0.60934794" />
      <ellipse
         id="ellipse106"
         ry="0.63859659"
         rx="0.65017426"
         cy="110.75434"
         cx="-156.05482"
         style="fill:#f2f2f2;stroke-width:0.60934794" />
      <ellipse
         id="ellipse108"
         ry="0.63859659"
         rx="0.65017426"
         cy="125.81559"
         cx="-146.48318"
         style="fill:#f2f2f2;stroke-width:0.60934794" />
      <ellipse
         id="ellipse110"
         ry="0.87075818"
         rx="0.88660127"
         cy="122.10101"
         cx="-173.81062"
         style="fill:#f2f2f2;stroke-width:0.60934794" />
      <ellipse
         id="ellipse112"
         ry="0.3192983"
         rx="0.32478243"
         cy="98.856209"
         cx="-72.240852"
         style="fill:#f2f2f2;stroke-width:0.60934794" />
      <ellipse
         id="ellipse114"
         ry="0.3192983"
         rx="0.32539177"
         cy="138.58508"
         cx="-138.15158"
         style="fill:#f2f2f2;stroke-width:0.60934794" />
      <ellipse
         id="ellipse116"
         ry="0.31868896"
         rx="0.32478243"
         cy="125.96122"
         cx="-114.25112"
         style="fill:#f2f2f2;stroke-width:0.60934794" />
      <ellipse
         id="ellipse118"
         ry="0.69648468"
         rx="0.70928103"
         cy="255.88579"
         cx="-31.560183"
         style="fill:#f2f2f2;stroke-width:0.60934794" />
      <ellipse
         id="ellipse120"
         ry="0.78362143"
         rx="0.79824573"
         cy="87.044609"
         cx="-51.236629"
         style="fill:#f2f2f2;stroke-width:0.60934794" />
      <ellipse
         id="ellipse122"
         ry="0.95789498"
         rx="0.97495669"
         cy="41.94677"
         cx="-37.97113"
         style="fill:#f2f2f2;stroke-width:0.60934794" />
      <ellipse
         id="ellipse124"
         ry="0.95789498"
         rx="0.97495669"
         cy="68.906761"
         cx="-137.8268"
         style="fill:#f2f2f2;stroke-width:0.60934794" />
      <ellipse
         id="ellipse126"
         ry="0.3192983"
         rx="0.32539177"
         cy="260.79041"
         cx="-133.01112"
         style="fill:#f2f2f2;stroke-width:0.60934794" />
      <ellipse
         id="ellipse128"
         ry="0.49357182"
         rx="0.50149333"
         cy="243.98827"
         cx="-166.57156"
         style="fill:#f2f2f2;stroke-width:0.60934794" />
      <ellipse
         id="ellipse130"
         ry="1.073671"
         rx="1.0925609"
         cy="238.85146"
         cx="-203.85574"
         style="fill:#f2f2f2;stroke-width:0.60934794" />
      <ellipse
         id="ellipse132"
         ry="0.75437278"
         rx="0.76838773"
         cy="222.45331"
         cx="-118.18081"
         style="fill:#f2f2f2;stroke-width:0.60934794" />
      <ellipse
         id="ellipse134"
         ry="0.49357182"
         rx="0.50271201"
         cy="210.17859"
         cx="-51.206772"
         style="fill:#f2f2f2;stroke-width:0.60934794" />
      <ellipse
         id="ellipse136"
         ry="0.81226075"
         rx="0.82688516"
         cy="73.78215"
         cx="-160.42691"
         style="fill:#f2f2f2;stroke-width:0.60934794" />
      <ellipse
         id="ellipse138"
         ry="0.31990764"
         rx="0.32478243"
         cy="78.51252"
         cx="-164.79958"
         style="fill:#f2f2f2;stroke-width:0.60934794" />
      <ellipse
         id="ellipse140"
         ry="0.3192983"
         rx="0.32539177"
         cy="64.989265"
         cx="-189.55678"
         style="fill:#f2f2f2;stroke-width:0.60934794" />
      <ellipse
         id="ellipse142"
         ry="1.3929694"
         rx="1.4179525"
         cy="37.47781"
         cx="-177.88716"
         style="fill:#f2f2f2;stroke-width:0.60934794" />
      <ellipse
         id="ellipse144"
         ry="1.2186959"
         rx="1.2406324"
         cy="57.908028"
         cx="-195.76054"
         style="fill:#f2f2f2;stroke-width:0.60934794" />
      <ellipse
         id="ellipse146"
         ry="0.81226075"
         rx="0.82688516"
         cy="46.619247"
         cx="-197.32657"
         style="fill:#f2f2f2;stroke-width:0.60934794" />
      <ellipse
         id="ellipse148"
         ry="0.37718639"
         rx="0.3838892"
         cy="53.23555"
         cx="-189.32036"
         style="fill:#f2f2f2;stroke-width:0.60934794" />
      <ellipse
         id="ellipse150"
         ry="0.78362143"
         rx="0.79824573"
         cy="52.394039"
         cx="-55.667809"
         style="fill:#f2f2f2;stroke-width:0.60934794" />
      <circle
         id="circle152"
         r="0.17427352"
         cy="125.20625"
         cx="-186.80923"
         style="fill:#f2f2f2;stroke-width:0.60934794" />
      <ellipse
         id="ellipse154"
         ry="0.3192983"
         rx="0.32539177"
         cy="110.46429"
         cx="-184.38707"
         style="fill:#f2f2f2;stroke-width:0.60934794" />
      <ellipse
         id="ellipse156"
         ry="1.1321685"
         rx="1.152277"
         cy="100.48074"
         cx="-204.20976"
         style="fill:#f2f2f2;stroke-width:0.60934794" />
      <ellipse
         id="ellipse158"
         ry="0.69648468"
         rx="0.70928103"
         cy="65.04715"
         cx="-168.10834"
         style="fill:#f2f2f2;stroke-width:0.60934794" />
      <ellipse
         id="ellipse160"
         ry="1.3929694"
         rx="1.4179525"
         cy="75.233009"
         cx="-75.549606"
         style="fill:#f2f2f2;stroke-width:0.60934794" />
      <ellipse
         id="ellipse162"
         ry="0.46432313"
         rx="0.47224462"
         cy="81.820671"
         cx="-46.8932"
         style="fill:#f2f2f2;stroke-width:0.60934794" />
      <ellipse
         id="ellipse164"
         ry="0.81226075"
         rx="0.8274945"
         cy="264.76581"
         cx="-61.989792"
         style="fill:#f2f2f2;stroke-width:0.60934794" />
      <ellipse
         id="ellipse166"
         ry="0.55145985"
         rx="0.56120944"
         cy="215.22887"
         cx="-79.361084"
         style="fill:#f2f2f2;stroke-width:0.60934794" />
      <ellipse
         id="ellipse168"
         ry="0.3192983"
         rx="0.32539177"
         cy="265.08572"
         cx="-78.652412"
         style="fill:#f2f2f2;stroke-width:0.60934794" />
      <ellipse
         id="ellipse170"
         ry="0.31868896"
         rx="0.32478243"
         cy="226.77783"
         cx="-140.51524"
         style="fill:#f2f2f2;stroke-width:0.60934794" />
      <ellipse
         id="ellipse172"
         ry="0.69648468"
         rx="0.70867163"
         cy="67.571678"
         cx="-64.97316"
         style="fill:#f2f2f2;stroke-width:0.60934794" />
      <ellipse
         id="ellipse174"
         ry="1.1029197"
         rx="1.1230283"
         cy="23.808918"
         cx="-111.00208"
         style="fill:#f2f2f2;stroke-width:0.60934794" />
      <ellipse
         id="ellipse176"
         ry="0.31868896"
         rx="0.32478243"
         cy="170.10117"
         cx="-134.72461"
         style="fill:#f2f2f2;stroke-width:0.60934794" />
      <ellipse
         id="ellipse178"
         ry="1.1029197"
         rx="1.1224189"
         cy="48.127995"
         cx="-138.29965"
         style="fill:#f2f2f2;stroke-width:0.60934794" />
      <ellipse
         id="ellipse180"
         ry="0.3192983"
         rx="0.32539177"
         cy="185.24956"
         cx="-197.82928"
         style="fill:#f2f2f2;stroke-width:0.60934794" />
      <ellipse
         id="ellipse182"
         ry="1.1315591"
         rx="1.152277"
         cy="55.702797"
         cx="-124.91654"
         style="fill:#f2f2f2;stroke-width:0.60934794" />
      <ellipse
         id="ellipse184"
         ry="0.46432313"
         rx="0.47285402"
         cy="187.28174"
         cx="-166.69038"
         style="fill:#f2f2f2;stroke-width:0.60934794" />
      <ellipse
         id="ellipse186"
         ry="0.49296248"
         rx="0.50210267"
         cy="153.2984"
         cx="-168.28566"
         style="fill:#f2f2f2;stroke-width:0.60934794" />
      <ellipse
         id="ellipse188"
         ry="1.073671"
         rx="1.0931702"
         cy="148.16222"
         cx="-205.56923"
         style="fill:#f2f2f2;stroke-width:0.60934794" />
      <ellipse
         id="ellipse190"
         ry="0.75437278"
         rx="0.7677784"
         cy="131.76526"
         cx="-122.70035"
         style="fill:#f2f2f2;stroke-width:0.60934794" />
      <ellipse
         id="ellipse192"
         ry="0.49296248"
         rx="0.50210267"
         cy="119.48933"
         cx="-52.919643"
         style="fill:#f2f2f2;stroke-width:0.60934794" />
      <ellipse
         id="ellipse194"
         ry="0.78362143"
         rx="0.79763645"
         cy="87.044609"
         cx="-102.25672"
         style="fill:#f2f2f2;stroke-width:0.60934794" />
      <ellipse
         id="ellipse196"
         ry="0.78301209"
         rx="0.79763645"
         cy="256.69864"
         cx="-101.60715"
         style="fill:#f2f2f2;stroke-width:0.60934794" />
      <ellipse
         id="ellipse198"
         ry="0.84150952"
         rx="0.85674322"
         cy="235.77487"
         cx="-53.274899"
         style="fill:#f2f2f2;stroke-width:0.60934794" />
      <ellipse
         id="ellipse200"
         ry="1.0450317"
         rx="1.0639216"
         cy="60.171757"
         cx="-106.89508"
         style="fill:#f2f2f2;stroke-width:0.60934794" />
      <ellipse
         id="ellipse202"
         ry="0.31990764"
         rx="0.32478243"
         cy="176.07948"
         cx="-83.910477"
         style="fill:#f2f2f2;stroke-width:0.60934794" />
      <ellipse
         id="ellipse204"
         ry="0.3192983"
         rx="0.32478243"
         cy="151.26683"
         cx="-93.748398"
         style="fill:#f2f2f2;stroke-width:0.60934794" />
      <ellipse
         id="ellipse206"
         ry="0.3192983"
         rx="0.32478243"
         cy="176.31163"
         cx="-106.83598"
         style="fill:#f2f2f2;stroke-width:0.60934794" />
      <ellipse
         id="ellipse208"
         ry="0.3192983"
         rx="0.32478243"
         cy="23.75103"
         cx="-78.977188"
         style="fill:#f2f2f2;stroke-width:0.60934794" />
      <ellipse
         id="ellipse210"
         ry="0.3192983"
         rx="0.32478243"
         cy="131.06879"
         cx="-87.987617"
         style="fill:#f2f2f2;stroke-width:0.60934794" />
      <ellipse
         id="ellipse212"
         ry="0.31868896"
         rx="0.32539177"
         cy="96.33107"
         cx="-140.45613"
         style="fill:#f2f2f2;stroke-width:0.60934794" />
      <ellipse
         id="ellipse214"
         ry="0.31868896"
         rx="0.32539177"
         cy="209.53999"
         cx="-186.30713"
         style="fill:#f2f2f2;stroke-width:0.60934794" />
      <ellipse
         id="ellipse216"
         ry="0.31990764"
         rx="0.32539177"
         cy="133.79683"
         cx="-197.85854"
         style="fill:#f2f2f2;stroke-width:0.60934794" />
      <ellipse
         id="ellipse218"
         ry="0.31990764"
         rx="0.32539177"
         cy="133.79683"
         cx="-197.85854"
         style="fill:#f2f2f2;stroke-width:0.60934794" />
      <ellipse
         style="fill:#f2f2f2;stroke-width:0.60934794"
         cx="-9.4288673"
         cy="51.378258"
         rx="1.2113837"
         ry="1.1900564"
         id="ellipse220" />
      <ellipse
         style="fill:#f2f2f2;stroke-width:0.60934794"
         cx="21.739294"
         cy="130.54657"
         rx="0.82688516"
         ry="0.81226075"
         id="ellipse222" />
      <ellipse
         style="fill:#f2f2f2;stroke-width:0.60934794"
         cx="13.880513"
         cy="124.07468"
         rx="0.35464051"
         ry="0.34854704"
         id="ellipse224" />
      <ellipse
         style="fill:#f2f2f2;stroke-width:0.60934794"
         cx="-10.699371"
         cy="158.98544"
         rx="0.79763645"
         ry="0.78362143"
         id="ellipse226" />
      <ellipse
         style="fill:#f2f2f2;stroke-width:0.60934794"
         cx="29.627308"
         cy="21.487303"
         rx="0.85674322"
         ry="0.84150952"
         id="ellipse228" />
      <ellipse
         style="fill:#f2f2f2;stroke-width:0.60934794"
         cx="-6.9475899"
         cy="112.49586"
         rx="0.68003231"
         ry="0.66723603"
         id="ellipse230" />
      <ellipse
         style="fill:#f2f2f2;stroke-width:0.60934794"
         cx="-6.9762273"
         cy="257.19162"
         rx="0.62031621"
         ry="0.60934794"
         id="ellipse232" />
      <ellipse
         style="fill:#f2f2f2;stroke-width:0.60934794"
         cx="-16.371767"
         cy="242.42102"
         rx="0.62031621"
         ry="0.60934794"
         id="ellipse234" />
      <ellipse
         style="fill:#f2f2f2;stroke-width:0.60934794"
         cx="10.424294"
         cy="246.04785"
         rx="0.85674322"
         ry="0.8421188"
         id="ellipse236" />
      <ellipse
         style="fill:#f2f2f2;stroke-width:0.60934794"
         cx="-24.555305"
         cy="229.85382"
         rx="0.32478243"
         ry="0.31868896"
         id="ellipse238" />
      <ellipse
         style="fill:#f2f2f2;stroke-width:0.60934794"
         cx="-48.01215"
         cy="242.24614"
         rx="0.29553375"
         ry="0.29065895"
         id="ellipse240" />
      <ellipse
         style="fill:#f2f2f2;stroke-width:0.60934794"
         cx="-118.41319"
         cy="25.317663"
         rx="1.2704904"
         ry="1.2479446"
         id="ellipse242" />
      <ellipse
         style="fill:#f2f2f2;stroke-width:0.60934794"
         cx="-29.606192"
         cy="109.97071"
         rx="0.32478243"
         ry="0.3192983"
         id="ellipse244" />
      <ellipse
         style="fill:#f2f2f2;stroke-width:0.60934794"
         cx="-113.95216"
         cy="89.685524"
         rx="0.79824573"
         ry="0.78362143"
         id="ellipse246" />
      <ellipse
         style="fill:#f2f2f2;stroke-width:0.60934794"
         cx="32.315742"
         cy="95.112373"
         rx="0.32478243"
         ry="0.31868896"
         id="ellipse248" />
      <ellipse
         style="fill:#f2f2f2;stroke-width:0.60934794"
         cx="1.7684956"
         cy="93.080811"
         rx="0.47163528"
         ry="0.46432313"
         id="ellipse250" />
      <ellipse
         style="fill:#f2f2f2;stroke-width:0.60934794"
         cx="3.3339291"
         cy="126.45419"
         rx="0.50149333"
         ry="0.49357182"
         id="ellipse252" />
      <ellipse
         style="fill:#f2f2f2;stroke-width:0.60934794"
         cx="39.908195"
         cy="131.47461"
         rx="1.0937796"
         ry="1.073671"
         id="ellipse254" />
      <ellipse
         style="fill:#f2f2f2;stroke-width:0.60934794"
         cx="-44.141579"
         cy="147.58089"
         rx="0.7677784"
         ry="0.75559145"
         id="ellipse256" />
      <circle
         style="fill:#f2f2f2;stroke-width:0.60934794"
         cx="11.162845"
         cy="40.466663"
         r="0.11577611"
         id="circle258" />
      <ellipse
         style="fill:#f2f2f2;stroke-width:0.60934794"
         cx="4.2491784"
         cy="48.592319"
         rx="0.23703635"
         ry="0.23216157"
         id="ellipse260" />
      <circle
         style="fill:#f2f2f2;stroke-width:0.60934794"
         cx="23.186495"
         cy="243.00052"
         r="0.14563414"
         id="circle262" />
      <ellipse
         style="fill:#f2f2f2;stroke-width:0.60934794"
         cx="20.822817"
         cy="257.48166"
         rx="0.32539177"
         ry="0.3192983"
         id="ellipse264" />
      <ellipse
         style="fill:#f2f2f2;stroke-width:0.60934794"
         cx="-24.022758"
         cy="20.820066"
         rx="1.861558"
         ry="1.8280438"
         id="ellipse266" />
      <ellipse
         style="fill:#f2f2f2;stroke-width:0.60934794"
         cx="-9.7243929"
         cy="103.29592"
         rx="0.44299594"
         ry="0.43507442"
         id="ellipse268" />
      <ellipse
         style="fill:#f2f2f2;stroke-width:0.60934794"
         cx="-138.00069"
         cy="258.091"
         rx="0.8274945"
         ry="0.81226075"
         id="ellipse270" />
      <ellipse
         style="fill:#f2f2f2;stroke-width:0.60934794"
         cx="-0.68473983"
         cy="94.067345"
         rx="0.62092555"
         ry="0.60934794"
         id="ellipse272" />
      <ellipse
         style="fill:#f2f2f2;stroke-width:0.60934794"
         cx="-10.079052"
         cy="79.296143"
         rx="0.62031621"
         ry="0.60934794"
         id="ellipse274" />
      <ellipse
         style="fill:#f2f2f2;stroke-width:0.60934794"
         cx="30.897774"
         cy="64.117897"
         rx="1.0042053"
         ry="0.9865343"
         id="ellipse276" />
      <ellipse
         style="fill:#f2f2f2;stroke-width:0.60934794"
         cx="-99.299767"
         cy="106.05322"
         rx="0.8274945"
         ry="0.81226075"
         id="ellipse278" />
      <ellipse
         style="fill:#f2f2f2;stroke-width:0.60934794"
         cx="-82.222778"
         cy="154.66212"
         rx="0.53135139"
         ry="0.52221119"
         id="ellipse280" />
      <ellipse
         style="fill:#f2f2f2;stroke-width:0.60934794"
         cx="-23.491402"
         cy="94.764435"
         rx="0.62092555"
         ry="0.60934794"
         id="ellipse282" />
      <ellipse
         style="fill:#f2f2f2;stroke-width:0.60934794"
         cx="19.080687"
         cy="88.756874"
         rx="0.62031621"
         ry="0.60934794"
         id="ellipse284" />
      <ellipse
         style="fill:#f2f2f2;stroke-width:0.60934794"
         cx="-18.793947"
         cy="38.000023"
         rx="0.62092555"
         ry="0.60934794"
         id="ellipse286" />
      <ellipse
         style="fill:#f2f2f2;stroke-width:0.60934794"
         cx="-29.932213"
         cy="33.588951"
         rx="0.8573525"
         ry="0.84150952"
         id="ellipse288" />
      <ellipse
         style="fill:#f2f2f2;stroke-width:0.60934794"
         cx="-82.931465"
         cy="105.73331"
         rx="0.32478243"
         ry="0.3192983"
         id="ellipse290" />
      <ellipse
         style="fill:#f2f2f2;stroke-width:0.60934794"
         cx="-81.012001"
         cy="46.212814"
         rx="0.79763645"
         ry="0.78362143"
         id="ellipse292" />
      <ellipse
         style="fill:#f2f2f2;stroke-width:0.60934794"
         cx="-98.530754"
         cy="51.262482"
         rx="0.44360527"
         ry="0.43507442"
         id="ellipse294" />
      <ellipse
         style="fill:#f2f2f2;stroke-width:0.60934794"
         cx="-55.811203"
         cy="90.527031"
         rx="1.0334541"
         ry="1.0157831"
         id="ellipse296" />
      <ellipse
         style="fill:#f2f2f2;stroke-width:0.60934794"
         cx="-22.220898"
         cy="143.3441"
         rx="0.32478243"
         ry="0.3192983"
         id="ellipse298" />
      <ellipse
         style="fill:#f2f2f2;stroke-width:0.60934794"
         cx="-41.690166"
         cy="79.151115"
         rx="0.29492441"
         ry="0.29004961"
         id="ellipse300" />
      <ellipse
         style="fill:#f2f2f2;stroke-width:0.60934794"
         cx="-13.240342"
         cy="78.13533"
         rx="1.1236376"
         ry="1.1029197"
         id="ellipse302" />
      <ellipse
         style="fill:#f2f2f2;stroke-width:0.60934794"
         cx="-116.3158"
         cy="28.568535"
         rx="0.82688516"
         ry="0.81226075"
         id="ellipse304" />
      <path
         style="fill:#f2f2f2;stroke-width:0.60934794"
         inkscape:connector-curvature="0"
         d="m -27.922575,198.62718 c 0.179149,0 0.324173,0.14442 0.324173,0.32113 0,0.17488 -0.145024,0.31869 -0.324173,0.31869 -0.179757,0 -0.325392,-0.14381 -0.325392,-0.31869 0,-0.17671 0.145635,-0.32113 0.325392,-0.32113 z"
         id="path306" />
      <ellipse
         style="fill:#f2f2f2;stroke-width:0.60934794"
         cx="33.999371"
         cy="184.08936"
         rx="0.32478243"
         ry="0.3192983"
         id="ellipse308" />
      <ellipse
         style="fill:#f2f2f2;stroke-width:0.60934794"
         cx="5.0175576"
         cy="215.43117"
         rx="0.50271201"
         ry="0.49357182"
         id="ellipse310" />
      <ellipse
         style="fill:#f2f2f2;stroke-width:0.60934794"
         cx="41.592453"
         cy="220.48022"
         rx="1.0925609"
         ry="1.073671"
         id="ellipse312" />
      <ellipse
         style="fill:#f2f2f2;stroke-width:0.60934794"
         cx="-39.739651"
         cy="236.55788"
         rx="0.7677784"
         ry="0.75437278"
         id="ellipse314" />
      <path
         style="fill:#f2f2f2;stroke-width:0.60934794"
         inkscape:connector-curvature="0"
         d="m -108.19137,248.16595 c 0.26202,0 0.47225,0.20779 0.47225,0.46615 0,0.25532 -0.21084,0.46311 -0.47225,0.46311 -0.26141,0 -0.47163,-0.20779 -0.47163,-0.46311 -6.1e-4,-0.25836 0.21022,-0.46615 0.47163,-0.46615 z"
         id="path316" />
      <ellipse
         style="fill:#f2f2f2;stroke-width:0.60934794"
         cx="-60.390461"
         cy="113.97595"
         rx="0.79763645"
         ry="0.78362143"
         id="ellipse318" />
      <ellipse
         style="fill:#f2f2f2;stroke-width:0.60934794"
         cx="-46.150597"
         cy="25.172638"
         rx="0.7677784"
         ry="0.75498205"
         id="ellipse320" />
      <ellipse
         style="fill:#f2f2f2;stroke-width:0.60934794"
         cx="-107.83674"
         cy="134.52257"
         rx="0.82688516"
         ry="0.81226075"
         id="ellipse322" />
      <ellipse
         style="fill:#f2f2f2;stroke-width:0.60934794"
         cx="-77.792206"
         cy="193.08455"
         rx="0.32539177"
         ry="0.31868896"
         id="ellipse324" />
      <ellipse
         style="fill:#f2f2f2;stroke-width:0.60934794"
         cx="-68.101776"
         cy="217.43349"
         rx="0.32478243"
         ry="0.31868896"
         id="ellipse326" />
      <ellipse
         style="fill:#f2f2f2;stroke-width:0.60934794"
         cx="-55.279846"
         cy="192.85301"
         rx="0.32539177"
         ry="0.3192983"
         id="ellipse328" />
      <ellipse
         style="fill:#f2f2f2;stroke-width:0.60934794"
         cx="-73.773575"
         cy="237.25496"
         rx="0.32478243"
         ry="0.31868896"
         id="ellipse330" />
      <ellipse
         style="fill:#f2f2f2;stroke-width:0.60934794"
         cx="22.68437"
         cy="160.2346"
         rx="0.32478243"
         ry="0.3192983"
         id="ellipse332" />
      <ellipse
         style="fill:#f2f2f2;stroke-width:0.60934794"
         cx="34.029236"
         cy="234.5842"
         rx="0.32478243"
         ry="0.31868896"
         id="ellipse334" />
      <ellipse
         style="fill:#f2f2f2;stroke-width:0.60934794"
         cx="34.029236"
         cy="234.5842"
         rx="0.32478243"
         ry="0.31868896"
         id="ellipse336" />
    </g>
    <g
       id="g204"
       style="fill:#f2f2f2">
      <g
         id="g362"
         transform="matrix(0.46015924,0,0,0.46015924,-134.36346,351.88514)"
         style="fill:#f2f2f2">
        <path
           style="fill:#f2f2f2"
           inkscape:connector-curvature="0"
           d="m 115.612,351.556 c 4.751,0 8.63,-2.334 8.63,-5.811 0,-0.809 -1.164,-1.43 -2.958,-1.811 l -4.509,-4.477 v -2.238 h -2.424 v 2.382 l -4.363,4.333 c -1.794,0.381 -3.006,1.002 -3.006,1.811 0,3.525 3.879,5.811 8.63,5.811 z m -1.018,-10.955 h 1.988 l 3.297,3.191 c -2.618,-0.38 -5.964,-0.334 -8.582,0 z m 25.987,21.241 -13.527,-0.144 c -1.455,0 -2.667,1.145 -2.715,2.621 v 1.047 l -3.2,-0.047 v -7.336 c 0,-2.905 -2.376,-5.046 -5.333,-5.046 h -0.049 c -2.957,0 -5.285,2.141 -5.285,5.046 v 7.24 l -3.394,-0.048 v -0.952 c 0,-1.429 -1.26,-2.619 -2.714,-2.668 l -13.576,-0.144 c -1.454,0 -2.714,1.145 -2.714,2.621 l -0.049,3.239 c 0,1.428 1.164,2.618 2.667,2.665 l 13.526,0.144 c 1.455,0 2.667,-1.142 2.715,-2.62 l 0.048,-1.047 3.539,0.049 v 2.95 c 0,0.668 0.098,1.335 0.34,1.906 -0.727,0.334 -1.309,1.05 -1.309,1.906 v 1.906 c 0,0.902 0.485,1.617 1.455,1.95 v 0.238 c 0,1.143 0.873,2.239 2.084,2.239 h 5.091 c 1.164,0 2.036,-1.048 2.036,-2.239 v -0.238 c 0.97,-0.333 1.456,-1.048 1.456,-1.95 v -1.906 c 0,-0.716 -0.388,-1.335 -0.921,-1.716 0.291,-0.666 0.436,-1.379 0.436,-2.143 v -2.857 l 3.2,0.047 v 0.951 c 0,1.432 1.164,2.623 2.667,2.669 l 13.527,0.144 c 1.454,0 2.666,-1.143 2.715,-2.621 l 0.048,-3.238 c -0.098,-1.427 -1.31,-2.618 -2.764,-2.618 z m -24.872,28.242 c 0.194,0 0.339,-0.095 0.437,-0.191 0.097,-0.095 0.194,-0.284 0.194,-0.427 v -2.763 c 0,-0.333 -0.291,-0.62 -0.63,-0.62 -0.339,0 -0.63,0.287 -0.63,0.62 v 2.763 c -0.001,0.332 0.29,0.618 0.629,0.618 z m -0.048,-5.524 c 0.193,0 0.339,-0.095 0.436,-0.189 0.096,-0.098 0.193,-0.287 0.193,-0.43 v -2.762 c 0,-0.335 -0.29,-0.619 -0.629,-0.619 -0.34,0 -0.631,0.284 -0.631,0.619 v 2.762 c 0,0.331 0.291,0.619 0.631,0.619 z m 0.096,11.048 c 0.194,0 0.34,-0.095 0.436,-0.188 0.097,-0.098 0.195,-0.288 0.195,-0.431 v -2.762 c 0,-0.333 -0.291,-0.619 -0.631,-0.619 -0.339,0 -0.63,0.286 -0.63,0.619 v 2.762 c 0,0.382 0.243,0.666 0.63,0.619 z m 0.049,11.097 c 0.194,0 0.339,-0.096 0.437,-0.19 0.097,-0.095 0.194,-0.285 0.194,-0.429 v -2.763 c 0,-0.334 -0.291,-0.618 -0.63,-0.618 -0.339,0 -0.631,0.284 -0.631,0.618 v 2.763 c -0.001,0.334 0.291,0.619 0.63,0.619 z m -0.049,-5.523 c 0.194,0 0.34,-0.097 0.436,-0.189 0.097,-0.097 0.195,-0.289 0.195,-0.431 V 397.8 c 0,-0.333 -0.291,-0.619 -0.631,-0.619 -0.339,0 -0.63,0.286 -0.63,0.619 v 2.762 c 0,0.334 0.291,0.619 0.63,0.62 z"
           id="path360" />
      </g>
      <g
         id="g370"
         transform="matrix(0.60934793,0,0,0.60934793,-482.37701,137.62336)"
         style="fill:#f2f2f2">
        <path
           style="fill:#f2f2f2"
           inkscape:connector-curvature="0"
           d="m 837.622,335.077 c -0.872,-0.715 -2.083,-0.858 -3.055,-0.287 l -6.108,3.431 -2.376,-2.19 3.54,-0.477 c 0.824,-0.097 1.552,-0.574 1.987,-1.335 l 1.892,-3.332 1.26,0.331 c 1.407,0.335 2.86,-0.475 3.249,-1.905 0.339,-1.38 -0.485,-2.808 -1.939,-3.189 l -3.249,-0.811 c -1.163,-0.284 -2.375,0.238 -2.956,1.238 l -2.231,3.907 -3.49,0.475 c -0.049,-0.046 -0.098,-0.096 -0.194,-0.143 l 1.213,-1.713 c 0.145,-0.238 0.193,-0.478 0.145,-0.716 0.146,-0.237 0.194,-0.573 0.05,-0.857 -0.194,-0.476 -0.777,-0.714 -1.262,-0.476 -0.049,0 -0.049,0 -0.097,0.048 l -2.812,-2.288 c -0.437,-0.38 -0.97,-0.57 -1.552,-0.665 l -5.43,-1.811 c 0.726,-2.189 0.436,-4.666 -0.97,-6.667 -2.376,-3.381 -7.128,-4.238 -10.618,-1.905 -3.443,2.334 -4.315,7 -1.939,10.43 0.243,0.333 0.485,0.572 0.776,0.858 h -0.049 c -0.341,0.712 -0.097,1.333 0.437,1.857 l -2.716,0.713 -4.121,-4.049 c -1.018,-0.999 -2.617,-0.999 -3.636,0 -1.019,1.002 -1.019,2.573 0,3.573 l 5.14,5.096 c 0.096,0.096 0.241,0.238 0.387,0.334 0.631,0.381 1.358,0.524 2.086,0.334 l 6.254,-1.62 c 0.193,0.191 0.436,0.429 0.679,0.572 0.29,0.189 0.582,0.333 0.921,0.476 l 0.34,0.143 -1.212,3.239 -6.013,3 c -1.261,0.619 -1.794,2.143 -1.115,3.382 0.195,0.382 0.484,0.714 0.874,0.952 0.727,0.477 1.745,0.571 2.569,0.144 l 6.932,-3.43 c 0.582,-0.285 1.02,-0.763 1.262,-1.382 l 1.551,-4.189 6.837,2.428 7.369,6.812 c 0.097,0.095 0.193,0.189 0.34,0.236 0.824,0.572 1.891,0.621 2.811,0.097 l 6.207,-3.478 0.775,0.667 c 1.115,0.954 2.765,0.857 3.733,-0.238 0.97,-1.095 0.873,-2.716 -0.242,-3.669 z m -37.235,-15.859 c 0.291,-1.951 2.182,-3.333 4.22,-3.05 l 2.521,0.383 c 1.261,0.19 2.279,1 2.763,2.048 l -0.388,-0.049 c -0.146,-0.046 -0.291,0.049 -0.339,0.241 0,0.093 0.048,0.188 0.097,0.284 0.048,0 0.048,0.047 0.097,0.047 l 0.728,0.143 c 0.049,0.096 0.049,0.238 0.098,0.334 l -0.534,-0.096 c -0.146,-0.048 -0.291,0.047 -0.34,0.238 0,0.095 0.049,0.19 0.098,0.287 0.048,0 0.048,0.046 0.097,0.046 l 0.729,0.144 c 0,0.19 0,0.429 -0.05,0.619 -0.291,1.953 -2.182,3.333 -4.217,3.047 l -2.522,-0.381 c -1.99,-0.428 -3.348,-2.284 -3.058,-4.285 z m 40.436,-21.099 c -0.534,0.382 -1.067,0.809 -1.601,1.239 -0.389,0.333 -0.436,0.951 -0.096,1.331 0.192,0.239 0.483,0.334 0.727,0.334 0.242,0 0.436,-0.095 0.63,-0.237 0.485,-0.429 0.97,-0.81 1.454,-1.143 0.437,-0.285 0.534,-0.906 0.194,-1.333 -0.29,-0.382 -0.871,-0.475 -1.308,-0.191 z m -10.229,17.383 c 0.096,0 0.144,0.048 0.192,0.048 0.437,0 0.824,-0.286 0.922,-0.762 0.146,-0.714 0.339,-1.285 0.484,-1.81 0.146,-0.523 -0.146,-1.049 -0.679,-1.189 -0.533,-0.144 -1.066,0.141 -1.212,0.666 -0.146,0.523 -0.339,1.19 -0.484,1.904 -0.097,0.525 0.242,0.999 0.777,1.143 z m 21.574,-21.335 c -0.679,0.096 -1.31,0.142 -1.94,0.285 -0.533,0.096 -0.872,0.571 -0.822,1.095 0.095,0.478 0.484,0.811 0.969,0.811 h 0.146 c 0.63,-0.097 1.261,-0.19 1.89,-0.238 0.534,-0.049 0.922,-0.522 0.825,-1.049 -0.049,-0.571 -0.535,-0.953 -1.068,-0.904 z m -5.915,1.189 c -0.63,0.19 -1.261,0.476 -1.891,0.763 -0.485,0.238 -0.679,0.809 -0.485,1.286 0.146,0.334 0.534,0.571 0.873,0.571 0.146,0 0.291,-0.049 0.388,-0.095 0.581,-0.238 1.116,-0.477 1.697,-0.668 0.484,-0.189 0.774,-0.714 0.631,-1.189 -0.195,-0.572 -0.728,-0.858 -1.213,-0.668 z m -16.969,25.765 c 0.096,0 0.145,0.049 0.242,0.049 0.437,0 0.824,-0.285 0.921,-0.715 0.146,-0.571 0.29,-1.19 0.437,-1.905 0.097,-0.523 -0.194,-0.999 -0.728,-1.142 -0.533,-0.097 -1.018,0.189 -1.163,0.714 -0.147,0.713 -0.291,1.286 -0.437,1.856 -0.096,0.477 0.194,1.001 0.728,1.143 z m 3.054,-11.095 c 0.146,0.048 0.29,0.096 0.438,0.096 0.338,0 0.678,-0.191 0.872,-0.524 0.291,-0.573 0.582,-1.097 0.92,-1.62 0.292,-0.478 0.099,-1.048 -0.338,-1.285 -0.485,-0.286 -1.068,-0.096 -1.309,0.335 -0.341,0.569 -0.68,1.142 -0.972,1.712 -0.241,0.476 -0.095,1.048 0.389,1.286 z"
           id="path366" />
        <path
           style="fill:#f2f2f2"
           inkscape:connector-curvature="0"
           d="m 826.859,326.313 c 0.146,0.097 0.34,0.146 0.534,0.146 0.29,0 0.63,-0.146 0.823,-0.431 0.34,-0.522 0.679,-1.144 1.019,-1.81 0.193,-0.476 0,-1.049 -0.485,-1.239 -0.484,-0.188 -1.066,0 -1.261,0.477 -0.241,0.573 -0.534,1.097 -0.823,1.525 -0.389,0.428 -0.243,1.046 0.193,1.332 z m 8.436,-21.241 c 0.194,0.144 0.389,0.19 0.583,0.19 0.291,0 0.581,-0.143 0.775,-0.381 0.388,-0.478 0.775,-1 1.163,-1.429 0.34,-0.381 0.291,-0.999 -0.097,-1.333 -0.388,-0.333 -1.018,-0.286 -1.357,0.095 -0.437,0.476 -0.873,1.001 -1.261,1.523 -0.339,0.432 -0.242,1.002 0.194,1.335 z m 22.496,-11.809 c -0.581,0.144 -1.163,0.286 -1.842,0.379 -0.533,0.097 -0.872,0.571 -0.775,1.098 0.097,0.476 0.484,0.808 0.97,0.808 h 0.193 c 0.728,-0.141 1.358,-0.286 1.989,-0.428 0.532,-0.143 0.823,-0.667 0.677,-1.143 -0.145,-0.526 -0.677,-0.858 -1.212,-0.714 z m 21.236,-19.575 c -0.437,-0.286 -1.066,-0.19 -1.357,0.237 -0.389,0.524 -0.728,1.049 -1.114,1.573 -0.292,0.428 -0.194,1.048 0.241,1.333 0.146,0.095 0.34,0.19 0.533,0.19 0.292,0 0.631,-0.143 0.776,-0.428 0.387,-0.525 0.727,-1.049 1.114,-1.572 0.341,-0.429 0.244,-1.001 -0.193,-1.333 z m -3.344,4.761 c -0.437,-0.285 -1.067,-0.19 -1.358,0.238 -0.388,0.525 -0.728,1.049 -1.115,1.571 -0.291,0.43 -0.194,1.001 0.242,1.335 0.194,0.143 0.39,0.191 0.582,0.191 0.291,0 0.582,-0.146 0.776,-0.383 0.388,-0.523 0.775,-1.048 1.114,-1.572 0.292,-0.521 0.194,-1.093 -0.241,-1.38 z m -12.849,12.622 c -0.533,0.333 -1.066,0.619 -1.6,0.905 -0.484,0.237 -0.679,0.809 -0.437,1.286 0.193,0.332 0.533,0.523 0.872,0.523 0.146,0 0.292,-0.048 0.438,-0.097 0.581,-0.283 1.163,-0.619 1.745,-1 0.436,-0.285 0.581,-0.856 0.29,-1.332 -0.242,-0.428 -0.871,-0.571 -1.308,-0.285 z m 9.454,-7.954 c -0.437,-0.332 -1.019,-0.239 -1.358,0.191 -0.387,0.523 -0.774,1 -1.212,1.476 -0.339,0.43 -0.29,1 0.146,1.334 0.193,0.142 0.388,0.237 0.63,0.237 0.291,0 0.533,-0.096 0.728,-0.333 0.436,-0.476 0.824,-1 1.26,-1.524 0.291,-0.476 0.194,-1.05 -0.194,-1.381 z m -5.14,4.429 c -0.436,0.478 -0.92,0.905 -1.356,1.286 -0.389,0.335 -0.438,0.953 -0.097,1.335 0.193,0.189 0.435,0.333 0.728,0.333 0.241,0 0.484,-0.096 0.63,-0.24 0.484,-0.427 0.969,-0.856 1.454,-1.38 0.388,-0.381 0.388,-1 0,-1.334 -0.339,-0.381 -0.97,-0.381 -1.359,0 z"
           id="path368" />
      </g>
      <path
         style="fill:#f2f2f2;stroke-width:0.60934794"
         inkscape:connector-curvature="0"
         d="m 37.768124,388.82371 c -0.26628,-0.63798 -0.53196,-1.30705 -1.09256,-1.74029 -0.76838,-0.5801 -1.92066,-0.4954 -2.77801,-0.0579 -0.73853,0.37658 -1.15228,1.01517 -1.83109,1.50874 -0.41436,0.31869 -0.85675,0.60996 -1.212,0.98654 -0.9451,1.07428 -0.56121,2.52514 0.20718,3.56895 0.50271,0.69648 1.18153,1.33508 2.03888,1.48071 0.97496,0.20353 1.9493,-0.23216 2.80666,-0.66784 0.91524,-0.46432 1.8908,-1.01517 2.27408,-1.97307 0.38511,-0.95728 -0.0286,-2.08945 -0.41314,-3.10585 z m -4.10639,4.41168 c -0.0299,0.0871 -0.0591,0.20292 -0.089,0.31747 -0.1176,0.26202 -0.41374,0.49479 -0.67942,0.46555 -0.0585,0 -0.1176,-0.028 -0.17671,-0.0585 0.0591,0.0305 0.11821,0.0585 0.17671,0.0585 0.41375,0.0292 0.47225,-0.8994 0.41375,-1.13095 -0.0884,-0.49479 -0.41375,-1.07368 -0.91524,-1.24795 -0.3845,-0.14563 -0.29493,0.23155 -0.67943,0.37719 -0.32539,0.11577 -0.5612,0.0579 -0.70989,-0.26141 -0.53135,-1.33447 0.68004,-1.59649 1.59589,-0.84212 0.67881,0.52282 1.27049,1.42283 1.06331,2.32222 z m 0.26628,-2.69941 c -0.17732,-0.11456 -0.20717,-0.43507 -0.23703,-0.63798 -0.0293,-0.11639 0,-0.26142 0.089,-0.3193 0.089,-0.0579 0.17793,-0.0274 0.26629,-0.0274 0.17732,0.0274 0.3845,0.0567 0.56182,0.0859 0.089,0 0.14746,0.0292 0.20657,0.0579 0.089,0.0871 0.089,0.23338 0.0597,0.34916 -0.11943,0.28883 -0.65139,0.69466 -0.94632,0.49174 z m 1.38871,3.19238 -0.44361,0.17427 c 0.0292,0 0.0884,-0.028 0.11761,-0.028 l -0.29493,0.14381 v -0.0585 c -0.0299,-0.0286 0,-0.0579 0,-0.0579 0.0591,-0.23277 0.26568,-0.43446 0.53135,-0.46432 0.11822,0 0.23704,0.0585 0.23704,0.14502 0,0.0871 -0.0591,0.117 -0.14746,0.14564 z m -0.20657,-5.31047 c -0.38511,0.0591 -1.56603,-0.11639 -1.09378,-0.81226 0.14746,-0.20352 0.41375,-0.29066 0.64956,-0.34855 0.44422,-0.0877 0.79825,0.23277 0.38389,0.5801 0.20657,0.0591 0.50272,0.0871 0.70989,-0.0292 0.23582,-0.11577 0.38389,-0.40582 0.23582,-0.60874 0.23704,-0.0585 0.44361,0.20292 0.44361,0.40644 0,0.23155 -0.17671,0.43507 -0.38389,0.55085 -0.29554,0.17366 -0.62032,0.23216 -0.9451,0.26141 z m 1.47706,3.25026 c 0.0591,0.14563 0.14685,0.26141 0.17671,0.37719 0.0299,0.11577 0.0299,0.3199 -0.089,0.40582 -0.1176,0.0585 -0.26689,0.0585 -0.35464,-0.0292 -0.089,-0.0865 -0.14685,-0.20291 -0.20717,-0.31868 -0.20596,-0.6386 0.20717,-1.68241 0.97617,-1.71227 -0.47285,0.17488 -0.68003,0.81226 -0.5021,1.27719 z"
         id="path372" />
      <g
         id="g378"
         transform="matrix(0.60934793,0,0,0.60934793,-645.03854,446.28831)"
         style="fill:#f2f2f2">
        <path
           style="fill:#f2f2f2"
           inkscape:connector-curvature="0"
           d="m 783.807,37.227 c -4.558,0 -8.29,3.667 -8.29,8.145 0,4.477 3.732,8.144 8.29,8.144 4.558,0 8.291,-3.667 8.291,-8.144 0,-4.477 -3.734,-8.145 -8.291,-8.145 z m 0,14.716 c -3.685,0 -6.691,-2.953 -6.691,-6.572 0,-3.62 3.007,-6.574 6.691,-6.574 3.684,0 6.69,2.954 6.69,6.574 0,3.62 -3.006,6.572 -6.69,6.572 z"
           id="path374" />
        <path
           style="fill:#f2f2f2"
           inkscape:connector-curvature="0"
           d="m 783.807,43.847 c -0.873,0 -1.552,0.667 -1.552,1.524 0,0.856 0.679,1.524 1.552,1.524 0.872,0 1.551,-0.667 1.551,-1.524 -10e-4,-0.857 -0.727,-1.524 -1.551,-1.524 z m 0,1.571 c -0.049,0 -0.049,0 0,0 -0.049,-0.095 -0.049,-0.095 0,-0.095 0.049,0 0.049,0 0.049,0.048 -10e-4,0.047 -0.049,0.047 -0.049,0.047 z"
           id="path376" />
      </g>
      <path
         style="fill:#f2f2f2;stroke-width:0.60934794"
         inkscape:connector-curvature="0"
         d="m -73.874698,317.25118 c -0.0299,-0.17428 -0.0591,-0.34855 -0.089,-0.55207 -0.0585,-0.17306 -0.1176,-0.37597 -0.17671,-0.55024 -0.14807,-0.37719 -0.3845,-0.72513 -0.65017,-1.07367 -0.14807,-0.17367 -0.29554,-0.32052 -0.47286,-0.46555 -0.17732,-0.14441 -0.35464,-0.28944 -0.56121,-0.40582 l -0.14807,-0.0877 c -0.0292,0 -0.0292,-0.0286 -0.0591,-0.0286 l -0.0884,-0.0585 c -0.11821,-0.0573 -0.20657,-0.11578 -0.32478,-0.17428 -0.20718,-0.0871 -0.443,-0.20352 -0.65018,-0.2608 -0.44299,-0.14441 -0.91585,-0.23277 -1.38809,-0.23277 h -0.0299 c -0.14746,-0.0286 -0.29492,-0.0286 -0.4436,-0.0286 h -0.64957 c -0.20657,0.0286 -0.443,0.0585 -0.64956,0.0871 -0.44361,0.0877 -0.88661,0.26141 -1.3296,0.49357 -0.20657,0.11578 -0.41375,0.23216 -0.62032,0.37779 l -0.14746,0.11517 c -0.0591,0.0293 -0.089,0.0877 -0.14746,0.11578 l -0.0591,0.0579 -0.0591,0.0591 -0.11821,0.11456 -0.14807,0.14685 c -0.0293,0.028 -0.089,0.0859 -0.1176,0.14442 -0.089,0.0865 -0.14808,0.17366 -0.23643,0.2608 -0.14746,0.20291 -0.29554,0.37779 -0.41314,0.58071 -0.11821,0.20291 -0.23643,0.43568 -0.29614,0.63859 -0.0884,0.23217 -0.14747,0.43508 -0.17732,0.66663 -0.0585,0.43568 0,0.90062 0.089,1.27841 0.11822,0.40522 0.29554,0.75377 0.5021,1.04443 0.20657,0.29005 0.44361,0.55146 0.67943,0.72512 0.23642,0.17366 0.44299,0.31869 0.64956,0.40643 0.0591,0.0293 0.089,0.0585 0.14807,0.0585 0.0292,0.028 0.0884,0.028 0.11822,0.0579 0.0292,0.0286 0.089,0.0286 0.11821,0.0286 0.0299,0 0.0591,0.0292 0.089,0.0292 0.0292,0 0.0591,0.0286 0.0883,0.0286 0.59107,0.20352 1.24124,0.23277 1.8317,0.11638 l -0.0292,0.0286 -0.089,0.0877 -0.089,0.0865 c -0.11821,0.1176 -0.26628,0.23338 -0.38389,0.34976 -0.0292,0.0286 -0.0591,0.0573 -0.11821,0.0865 -0.11821,0.0579 -0.20657,0.0871 -0.32478,0.11577 -0.0591,0.0292 -0.14746,0.0585 -0.20657,0.0585 -0.0591,0.0293 -0.14746,0.0585 -0.23643,0.0585 -0.14807,0.0286 -0.29553,0.0859 -0.47285,0.11517 -0.14746,0.0286 -0.32418,0.0597 -0.50211,0.0597 -0.089,0 -0.17732,0 -0.26628,0.028 h -0.23582 c -0.35464,0 -0.70928,-0.028 -1.09317,-0.0877 -0.17732,-0.0299 -0.35464,-0.0871 -0.56121,-0.14442 l -0.14746,-0.0585 c -0.0591,-0.0292 -0.089,-0.0292 -0.11821,-0.0585 l -0.0591,-0.0292 c -0.0293,0 -0.0591,-0.0286 -0.0591,-0.0286 l -0.14807,-0.0585 -0.1176,-0.0573 c -0.0299,-0.0299 -0.089,-0.0591 -0.11822,-0.0884 -0.089,-0.0585 -0.14746,-0.11639 -0.23642,-0.17367 -0.14747,-0.11638 -0.29554,-0.23216 -0.443,-0.37718 -0.26628,-0.26202 -0.5021,-0.55207 -0.65017,-0.87137 -0.17732,-0.31869 -0.29554,-0.63738 -0.35464,-0.92743 -0.0591,-0.3193 -0.089,-0.60935 -0.089,-0.90001 0,-0.29065 0.0591,-0.55207 0.11822,-0.78362 0.0585,-0.23277 0.11821,-0.40643 0.20656,-0.58071 0.0293,-0.0286 0.0293,-0.0859 0.0591,-0.11638 0.0292,-0.0286 0.0292,-0.0579 0.0591,-0.0865 0.0299,-0.0573 0.0591,-0.11517 0.089,-0.14624 0.0591,-0.0865 0.0591,-0.11517 0.0591,-0.11517 l -0.089,-0.0573 c 0,0 -0.0292,0.0292 -0.089,0.11578 -0.0292,0.0286 -0.0591,0.0877 -0.1176,0.14563 -0.0299,0.028 -0.0299,0.0573 -0.0591,0.0859 -0.0292,0.0292 -0.0597,0.0579 -0.0597,0.11639 -0.0585,0.0871 -0.0883,0.17366 -0.14746,0.26141 -0.0293,0.0579 -0.0591,0.0871 -0.089,0.14441 -0.0292,0.0585 -0.0585,0.11578 -0.0585,0.17488 -0.089,0.23156 -0.17793,0.49297 -0.23643,0.81105 -0.0591,0.32051 -0.0591,0.63981 -0.0299,1.01639 0.0299,0.17488 0.0591,0.34855 0.089,0.55085 0.0591,0.17427 0.11821,0.3778 0.17793,0.55146 0.14746,0.3778 0.38389,0.72512 0.64956,1.07367 0.14807,0.17549 0.29554,0.3193 0.47286,0.46554 0.0883,0.0865 0.17732,0.14442 0.26628,0.20413 0.0585,0.028 0.0884,0.0567 0.14746,0.0853 l 0.0591,0.0585 0.0292,0.0299 h 0.0292 l 0.14807,0.0871 c 0.0292,0 0.0292,0.0286 0.0591,0.0286 l 0.089,0.0591 c 0.11821,0.0579 0.20657,0.11517 0.32478,0.17367 0.20657,0.0865 0.44361,0.20291 0.64957,0.2608 0.44299,0.14624 0.91585,0.23216 1.3887,0.23216 h 0.0292 c 0.14746,0 0.29553,0.0292 0.44361,0.0292 h 0.64956 c 0.20718,-0.0292 0.44361,-0.0585 0.65018,-0.0865 0.44299,-0.0871 0.88599,-0.26202 1.32898,-0.49418 0.20657,-0.11517 0.41375,-0.23155 0.62032,-0.3778 l 0.14807,-0.11577 c 0.0591,-0.0286 0.089,-0.0871 0.14746,-0.11517 l 0.0597,-0.0579 0.0591,-0.0585 0.0585,-0.0585 0.0299,-0.0292 0.0292,-0.0286 c 0.17732,-0.17428 0.32478,-0.34733 0.47224,-0.55146 0.14808,-0.20291 0.29554,-0.37658 0.41375,-0.5801 0.11822,-0.20352 0.23643,-0.43508 0.29615,-0.6386 0.0884,-0.23216 0.14746,-0.43507 0.17671,-0.66662 0.0591,-0.4363 0,-0.90123 -0.0884,-1.27781 -0.11821,-0.40704 -0.29553,-0.75498 -0.5021,-1.04503 -0.14807,-0.20352 -0.29554,-0.40765 -0.47225,-0.55085 -0.11882,-0.11638 -0.23642,-0.23277 -0.35525,-0.31869 -0.85613,-0.6392 -1.9493,-0.78423 -2.92426,-0.49479 v -0.028 l 0.0299,-0.0305 0.0293,-0.028 0.0292,-0.0292 0.089,-0.0877 0.0884,-0.0871 c 0.11821,-0.11638 0.26628,-0.23277 0.38389,-0.34854 0.0299,-0.0286 0.0591,-0.0579 0.11882,-0.0871 0.1176,-0.0579 0.20657,-0.0877 0.32417,-0.11456 0.0597,-0.0299 0.14807,-0.0597 0.20718,-0.0597 0.0585,-0.0292 0.14746,-0.0573 0.23643,-0.0573 0.14746,-0.0299 0.29492,-0.0877 0.47224,-0.11639 0.14747,-0.0293 0.3254,-0.0579 0.50211,-0.0579 0.089,0 0.17732,0 0.26567,-0.0292 h 0.23643 c 0.35464,0 0.70928,0.0292 1.09256,0.0871 0.17732,0.0292 0.35464,0.0871 0.56121,0.14442 l 0.14807,0.0591 c 0.0591,0.0299 0.089,0.0299 0.11821,0.0573 l 0.0597,0.0299 c 0.0286,0 0.0591,0.028 0.0591,0.028 l 0.0591,0.0299 0.0299,0.0292 h 0.0292 c 0.17732,0.0884 0.32478,0.20291 0.47285,0.31869 0.14747,0.11638 0.29554,0.23277 0.41375,0.37718 0.26629,0.26202 0.5021,0.55085 0.64957,0.87076 0.17732,0.31869 0.29553,0.63921 0.35464,0.92865 0.0591,0.31869 0.089,0.60995 0.089,0.9 0,0.29066 -0.0591,0.55146 -0.11821,0.78423 -0.0591,0.23156 -0.11822,0.40461 -0.20657,0.57949 -0.0293,0.0299 -0.0293,0.0865 -0.0591,0.11578 -0.0292,0.0286 -0.0292,0.0585 -0.0591,0.0877 -0.0292,0.0585 -0.0591,0.11516 -0.089,0.14563 -0.0591,0.0859 -0.0591,0.11456 -0.0591,0.11456 l 0.089,0.0585 c 0,0 0.0299,-0.0286 0.089,-0.11578 0.0292,-0.0286 0.0591,-0.0877 0.11761,-0.14442 0.0299,-0.0299 0.0299,-0.0585 0.0591,-0.0877 0.0292,-0.0299 0.0591,-0.0585 0.0591,-0.11578 0.0591,-0.0865 0.089,-0.17488 0.14807,-0.2608 0.0293,-0.0579 0.0591,-0.0883 0.089,-0.14563 0.0292,-0.0585 0.0591,-0.11578 0.0591,-0.17367 0.089,-0.23216 0.17793,-0.4954 0.23643,-0.81226 0.14625,-0.29005 0.1761,-0.63799 0.11639,-0.98653 z"
         id="path380" />
      <g
         id="g370-0"
         transform="matrix(-0.60934793,0,0,-0.60934793,354.91361,704.43563)"
         style="fill:#f2f2f2">
        <path
           style="fill:#f2f2f2"
           inkscape:connector-curvature="0"
           d="m 837.622,335.077 c -0.872,-0.715 -2.083,-0.858 -3.055,-0.287 l -6.108,3.431 -2.376,-2.19 3.54,-0.477 c 0.824,-0.097 1.552,-0.574 1.987,-1.335 l 1.892,-3.332 1.26,0.331 c 1.407,0.335 2.86,-0.475 3.249,-1.905 0.339,-1.38 -0.485,-2.808 -1.939,-3.189 l -3.249,-0.811 c -1.163,-0.284 -2.375,0.238 -2.956,1.238 l -2.231,3.907 -3.49,0.475 c -0.049,-0.046 -0.098,-0.096 -0.194,-0.143 l 1.213,-1.713 c 0.145,-0.238 0.193,-0.478 0.145,-0.716 0.146,-0.237 0.194,-0.573 0.05,-0.857 -0.194,-0.476 -0.777,-0.714 -1.262,-0.476 -0.049,0 -0.049,0 -0.097,0.048 l -2.812,-2.288 c -0.437,-0.38 -0.97,-0.57 -1.552,-0.665 l -5.43,-1.811 c 0.726,-2.189 0.436,-4.666 -0.97,-6.667 -2.376,-3.381 -7.128,-4.238 -10.618,-1.905 -3.443,2.334 -4.315,7 -1.939,10.43 0.243,0.333 0.485,0.572 0.776,0.858 h -0.049 c -0.341,0.712 -0.097,1.333 0.437,1.857 l -2.716,0.713 -4.121,-4.049 c -1.018,-0.999 -2.617,-0.999 -3.636,0 -1.019,1.002 -1.019,2.573 0,3.573 l 5.14,5.096 c 0.096,0.096 0.241,0.238 0.387,0.334 0.631,0.381 1.358,0.524 2.086,0.334 l 6.254,-1.62 c 0.193,0.191 0.436,0.429 0.679,0.572 0.29,0.189 0.582,0.333 0.921,0.476 l 0.34,0.143 -1.212,3.239 -6.013,3 c -1.261,0.619 -1.794,2.143 -1.115,3.382 0.195,0.382 0.484,0.714 0.874,0.952 0.727,0.477 1.745,0.571 2.569,0.144 l 6.932,-3.43 c 0.582,-0.285 1.02,-0.763 1.262,-1.382 l 1.551,-4.189 6.837,2.428 7.369,6.812 c 0.097,0.095 0.193,0.189 0.34,0.236 0.824,0.572 1.891,0.621 2.811,0.097 l 6.207,-3.478 0.775,0.667 c 1.115,0.954 2.765,0.857 3.733,-0.238 0.97,-1.095 0.873,-2.716 -0.242,-3.669 z m -37.235,-15.859 c 0.291,-1.951 2.182,-3.333 4.22,-3.05 l 2.521,0.383 c 1.261,0.19 2.279,1 2.763,2.048 l -0.388,-0.049 c -0.146,-0.046 -0.291,0.049 -0.339,0.241 0,0.093 0.048,0.188 0.097,0.284 0.048,0 0.048,0.047 0.097,0.047 l 0.728,0.143 c 0.049,0.096 0.049,0.238 0.098,0.334 l -0.534,-0.096 c -0.146,-0.048 -0.291,0.047 -0.34,0.238 0,0.095 0.049,0.19 0.098,0.287 0.048,0 0.048,0.046 0.097,0.046 l 0.729,0.144 c 0,0.19 0,0.429 -0.05,0.619 -0.291,1.953 -2.182,3.333 -4.217,3.047 l -2.522,-0.381 c -1.99,-0.428 -3.348,-2.284 -3.058,-4.285 z m 40.436,-21.099 c -0.534,0.382 -1.067,0.809 -1.601,1.239 -0.389,0.333 -0.436,0.951 -0.096,1.331 0.192,0.239 0.483,0.334 0.727,0.334 0.242,0 0.436,-0.095 0.63,-0.237 0.485,-0.429 0.97,-0.81 1.454,-1.143 0.437,-0.285 0.534,-0.906 0.194,-1.333 -0.29,-0.382 -0.871,-0.475 -1.308,-0.191 z m -10.229,17.383 c 0.096,0 0.144,0.048 0.192,0.048 0.437,0 0.824,-0.286 0.922,-0.762 0.146,-0.714 0.339,-1.285 0.484,-1.81 0.146,-0.523 -0.146,-1.049 -0.679,-1.189 -0.533,-0.144 -1.066,0.141 -1.212,0.666 -0.146,0.523 -0.339,1.19 -0.484,1.904 -0.097,0.525 0.242,0.999 0.777,1.143 z m 21.574,-21.335 c -0.679,0.096 -1.31,0.142 -1.94,0.285 -0.533,0.096 -0.872,0.571 -0.822,1.095 0.095,0.478 0.484,0.811 0.969,0.811 h 0.146 c 0.63,-0.097 1.261,-0.19 1.89,-0.238 0.534,-0.049 0.922,-0.522 0.825,-1.049 -0.049,-0.571 -0.535,-0.953 -1.068,-0.904 z m -5.915,1.189 c -0.63,0.19 -1.261,0.476 -1.891,0.763 -0.485,0.238 -0.679,0.809 -0.485,1.286 0.146,0.334 0.534,0.571 0.873,0.571 0.146,0 0.291,-0.049 0.388,-0.095 0.581,-0.238 1.116,-0.477 1.697,-0.668 0.484,-0.189 0.774,-0.714 0.631,-1.189 -0.195,-0.572 -0.728,-0.858 -1.213,-0.668 z m -16.969,25.765 c 0.096,0 0.145,0.049 0.242,0.049 0.437,0 0.824,-0.285 0.921,-0.715 0.146,-0.571 0.29,-1.19 0.437,-1.905 0.097,-0.523 -0.194,-0.999 -0.728,-1.142 -0.533,-0.097 -1.018,0.189 -1.163,0.714 -0.147,0.713 -0.291,1.286 -0.437,1.856 -0.096,0.477 0.194,1.001 0.728,1.143 z m 3.054,-11.095 c 0.146,0.048 0.29,0.096 0.438,0.096 0.338,0 0.678,-0.191 0.872,-0.524 0.291,-0.573 0.582,-1.097 0.92,-1.62 0.292,-0.478 0.099,-1.048 -0.338,-1.285 -0.485,-0.286 -1.068,-0.096 -1.309,0.335 -0.341,0.569 -0.68,1.142 -0.972,1.712 -0.241,0.476 -0.095,1.048 0.389,1.286 z"
           id="path366-2" />
        <path
           style="fill:#f2f2f2"
           inkscape:connector-curvature="0"
           d="m 826.859,326.313 c 0.146,0.097 0.34,0.146 0.534,0.146 0.29,0 0.63,-0.146 0.823,-0.431 0.34,-0.522 0.679,-1.144 1.019,-1.81 0.193,-0.476 0,-1.049 -0.485,-1.239 -0.484,-0.188 -1.066,0 -1.261,0.477 -0.241,0.573 -0.534,1.097 -0.823,1.525 -0.389,0.428 -0.243,1.046 0.193,1.332 z m 8.436,-21.241 c 0.194,0.144 0.389,0.19 0.583,0.19 0.291,0 0.581,-0.143 0.775,-0.381 0.388,-0.478 0.775,-1 1.163,-1.429 0.34,-0.381 0.291,-0.999 -0.097,-1.333 -0.388,-0.333 -1.018,-0.286 -1.357,0.095 -0.437,0.476 -0.873,1.001 -1.261,1.523 -0.339,0.432 -0.242,1.002 0.194,1.335 z m 22.496,-11.809 c -0.581,0.144 -1.163,0.286 -1.842,0.379 -0.533,0.097 -0.872,0.571 -0.775,1.098 0.097,0.476 0.484,0.808 0.97,0.808 h 0.193 c 0.728,-0.141 1.358,-0.286 1.989,-0.428 0.532,-0.143 0.823,-0.667 0.677,-1.143 -0.145,-0.526 -0.677,-0.858 -1.212,-0.714 z m 21.236,-19.575 c -0.437,-0.286 -1.066,-0.19 -1.357,0.237 -0.389,0.524 -0.728,1.049 -1.114,1.573 -0.292,0.428 -0.194,1.048 0.241,1.333 0.146,0.095 0.34,0.19 0.533,0.19 0.292,0 0.631,-0.143 0.776,-0.428 0.387,-0.525 0.727,-1.049 1.114,-1.572 0.341,-0.429 0.244,-1.001 -0.193,-1.333 z m -3.344,4.761 c -0.437,-0.285 -1.067,-0.19 -1.358,0.238 -0.388,0.525 -0.728,1.049 -1.115,1.571 -0.291,0.43 -0.194,1.001 0.242,1.335 0.194,0.143 0.39,0.191 0.582,0.191 0.291,0 0.582,-0.146 0.776,-0.383 0.388,-0.523 0.775,-1.048 1.114,-1.572 0.292,-0.521 0.194,-1.093 -0.241,-1.38 z m -12.849,12.622 c -0.533,0.333 -1.066,0.619 -1.6,0.905 -0.484,0.237 -0.679,0.809 -0.437,1.286 0.193,0.332 0.533,0.523 0.872,0.523 0.146,0 0.292,-0.048 0.438,-0.097 0.581,-0.283 1.163,-0.619 1.745,-1 0.436,-0.285 0.581,-0.856 0.29,-1.332 -0.242,-0.428 -0.871,-0.571 -1.308,-0.285 z m 9.454,-7.954 c -0.437,-0.332 -1.019,-0.239 -1.358,0.191 -0.387,0.523 -0.774,1 -1.212,1.476 -0.339,0.43 -0.29,1 0.146,1.334 0.193,0.142 0.388,0.237 0.63,0.237 0.291,0 0.533,-0.096 0.728,-0.333 0.436,-0.476 0.824,-1 1.26,-1.524 0.291,-0.476 0.194,-1.05 -0.194,-1.381 z m -5.14,4.429 c -0.436,0.478 -0.92,0.905 -1.356,1.286 -0.389,0.335 -0.438,0.953 -0.097,1.335 0.193,0.189 0.435,0.333 0.728,0.333 0.241,0 0.484,-0.096 0.63,-0.24 0.484,-0.427 0.969,-0.856 1.454,-1.38 0.388,-0.381 0.388,-1 0,-1.334 -0.339,-0.381 -0.97,-0.381 -1.359,0 z"
           id="path368-3" />
      </g>
      <g
         id="g370-0-7"
         transform="matrix(0.60934793,0,0,-0.60934793,-483.92354,704.52465)"
         style="fill:#f2f2f2">
        <path
           style="fill:#f2f2f2"
           inkscape:connector-curvature="0"
           d="m 837.622,335.077 c -0.872,-0.715 -2.083,-0.858 -3.055,-0.287 l -6.108,3.431 -2.376,-2.19 3.54,-0.477 c 0.824,-0.097 1.552,-0.574 1.987,-1.335 l 1.892,-3.332 1.26,0.331 c 1.407,0.335 2.86,-0.475 3.249,-1.905 0.339,-1.38 -0.485,-2.808 -1.939,-3.189 l -3.249,-0.811 c -1.163,-0.284 -2.375,0.238 -2.956,1.238 l -2.231,3.907 -3.49,0.475 c -0.049,-0.046 -0.098,-0.096 -0.194,-0.143 l 1.213,-1.713 c 0.145,-0.238 0.193,-0.478 0.145,-0.716 0.146,-0.237 0.194,-0.573 0.05,-0.857 -0.194,-0.476 -0.777,-0.714 -1.262,-0.476 -0.049,0 -0.049,0 -0.097,0.048 l -2.812,-2.288 c -0.437,-0.38 -0.97,-0.57 -1.552,-0.665 l -5.43,-1.811 c 0.726,-2.189 0.436,-4.666 -0.97,-6.667 -2.376,-3.381 -7.128,-4.238 -10.618,-1.905 -3.443,2.334 -4.315,7 -1.939,10.43 0.243,0.333 0.485,0.572 0.776,0.858 h -0.049 c -0.341,0.712 -0.097,1.333 0.437,1.857 l -2.716,0.713 -4.121,-4.049 c -1.018,-0.999 -2.617,-0.999 -3.636,0 -1.019,1.002 -1.019,2.573 0,3.573 l 5.14,5.096 c 0.096,0.096 0.241,0.238 0.387,0.334 0.631,0.381 1.358,0.524 2.086,0.334 l 6.254,-1.62 c 0.193,0.191 0.436,0.429 0.679,0.572 0.29,0.189 0.582,0.333 0.921,0.476 l 0.34,0.143 -1.212,3.239 -6.013,3 c -1.261,0.619 -1.794,2.143 -1.115,3.382 0.195,0.382 0.484,0.714 0.874,0.952 0.727,0.477 1.745,0.571 2.569,0.144 l 6.932,-3.43 c 0.582,-0.285 1.02,-0.763 1.262,-1.382 l 1.551,-4.189 6.837,2.428 7.369,6.812 c 0.097,0.095 0.193,0.189 0.34,0.236 0.824,0.572 1.891,0.621 2.811,0.097 l 6.207,-3.478 0.775,0.667 c 1.115,0.954 2.765,0.857 3.733,-0.238 0.97,-1.095 0.873,-2.716 -0.242,-3.669 z m -37.235,-15.859 c 0.291,-1.951 2.182,-3.333 4.22,-3.05 l 2.521,0.383 c 1.261,0.19 2.279,1 2.763,2.048 l -0.388,-0.049 c -0.146,-0.046 -0.291,0.049 -0.339,0.241 0,0.093 0.048,0.188 0.097,0.284 0.048,0 0.048,0.047 0.097,0.047 l 0.728,0.143 c 0.049,0.096 0.049,0.238 0.098,0.334 l -0.534,-0.096 c -0.146,-0.048 -0.291,0.047 -0.34,0.238 0,0.095 0.049,0.19 0.098,0.287 0.048,0 0.048,0.046 0.097,0.046 l 0.729,0.144 c 0,0.19 0,0.429 -0.05,0.619 -0.291,1.953 -2.182,3.333 -4.217,3.047 l -2.522,-0.381 c -1.99,-0.428 -3.348,-2.284 -3.058,-4.285 z m 40.436,-21.099 c -0.534,0.382 -1.067,0.809 -1.601,1.239 -0.389,0.333 -0.436,0.951 -0.096,1.331 0.192,0.239 0.483,0.334 0.727,0.334 0.242,0 0.436,-0.095 0.63,-0.237 0.485,-0.429 0.97,-0.81 1.454,-1.143 0.437,-0.285 0.534,-0.906 0.194,-1.333 -0.29,-0.382 -0.871,-0.475 -1.308,-0.191 z m -10.229,17.383 c 0.096,0 0.144,0.048 0.192,0.048 0.437,0 0.824,-0.286 0.922,-0.762 0.146,-0.714 0.339,-1.285 0.484,-1.81 0.146,-0.523 -0.146,-1.049 -0.679,-1.189 -0.533,-0.144 -1.066,0.141 -1.212,0.666 -0.146,0.523 -0.339,1.19 -0.484,1.904 -0.097,0.525 0.242,0.999 0.777,1.143 z m 21.574,-21.335 c -0.679,0.096 -1.31,0.142 -1.94,0.285 -0.533,0.096 -0.872,0.571 -0.822,1.095 0.095,0.478 0.484,0.811 0.969,0.811 h 0.146 c 0.63,-0.097 1.261,-0.19 1.89,-0.238 0.534,-0.049 0.922,-0.522 0.825,-1.049 -0.049,-0.571 -0.535,-0.953 -1.068,-0.904 z m -5.915,1.189 c -0.63,0.19 -1.261,0.476 -1.891,0.763 -0.485,0.238 -0.679,0.809 -0.485,1.286 0.146,0.334 0.534,0.571 0.873,0.571 0.146,0 0.291,-0.049 0.388,-0.095 0.581,-0.238 1.116,-0.477 1.697,-0.668 0.484,-0.189 0.774,-0.714 0.631,-1.189 -0.195,-0.572 -0.728,-0.858 -1.213,-0.668 z m -16.969,25.765 c 0.096,0 0.145,0.049 0.242,0.049 0.437,0 0.824,-0.285 0.921,-0.715 0.146,-0.571 0.29,-1.19 0.437,-1.905 0.097,-0.523 -0.194,-0.999 -0.728,-1.142 -0.533,-0.097 -1.018,0.189 -1.163,0.714 -0.147,0.713 -0.291,1.286 -0.437,1.856 -0.096,0.477 0.194,1.001 0.728,1.143 z m 3.054,-11.095 c 0.146,0.048 0.29,0.096 0.438,0.096 0.338,0 0.678,-0.191 0.872,-0.524 0.291,-0.573 0.582,-1.097 0.92,-1.62 0.292,-0.478 0.099,-1.048 -0.338,-1.285 -0.485,-0.286 -1.068,-0.096 -1.309,0.335 -0.341,0.569 -0.68,1.142 -0.972,1.712 -0.241,0.476 -0.095,1.048 0.389,1.286 z"
           id="path366-2-5" />
        <path
           style="fill:#f2f2f2"
           inkscape:connector-curvature="0"
           d="m 826.859,326.313 c 0.146,0.097 0.34,0.146 0.534,0.146 0.29,0 0.63,-0.146 0.823,-0.431 0.34,-0.522 0.679,-1.144 1.019,-1.81 0.193,-0.476 0,-1.049 -0.485,-1.239 -0.484,-0.188 -1.066,0 -1.261,0.477 -0.241,0.573 -0.534,1.097 -0.823,1.525 -0.389,0.428 -0.243,1.046 0.193,1.332 z m 8.436,-21.241 c 0.194,0.144 0.389,0.19 0.583,0.19 0.291,0 0.581,-0.143 0.775,-0.381 0.388,-0.478 0.775,-1 1.163,-1.429 0.34,-0.381 0.291,-0.999 -0.097,-1.333 -0.388,-0.333 -1.018,-0.286 -1.357,0.095 -0.437,0.476 -0.873,1.001 -1.261,1.523 -0.339,0.432 -0.242,1.002 0.194,1.335 z m 22.496,-11.809 c -0.581,0.144 -1.163,0.286 -1.842,0.379 -0.533,0.097 -0.872,0.571 -0.775,1.098 0.097,0.476 0.484,0.808 0.97,0.808 h 0.193 c 0.728,-0.141 1.358,-0.286 1.989,-0.428 0.532,-0.143 0.823,-0.667 0.677,-1.143 -0.145,-0.526 -0.677,-0.858 -1.212,-0.714 z m 21.236,-19.575 c -0.437,-0.286 -1.066,-0.19 -1.357,0.237 -0.389,0.524 -0.728,1.049 -1.114,1.573 -0.292,0.428 -0.194,1.048 0.241,1.333 0.146,0.095 0.34,0.19 0.533,0.19 0.292,0 0.631,-0.143 0.776,-0.428 0.387,-0.525 0.727,-1.049 1.114,-1.572 0.341,-0.429 0.244,-1.001 -0.193,-1.333 z m -3.344,4.761 c -0.437,-0.285 -1.067,-0.19 -1.358,0.238 -0.388,0.525 -0.728,1.049 -1.115,1.571 -0.291,0.43 -0.194,1.001 0.242,1.335 0.194,0.143 0.39,0.191 0.582,0.191 0.291,0 0.582,-0.146 0.776,-0.383 0.388,-0.523 0.775,-1.048 1.114,-1.572 0.292,-0.521 0.194,-1.093 -0.241,-1.38 z m -12.849,12.622 c -0.533,0.333 -1.066,0.619 -1.6,0.905 -0.484,0.237 -0.679,0.809 -0.437,1.286 0.193,0.332 0.533,0.523 0.872,0.523 0.146,0 0.292,-0.048 0.438,-0.097 0.581,-0.283 1.163,-0.619 1.745,-1 0.436,-0.285 0.581,-0.856 0.29,-1.332 -0.242,-0.428 -0.871,-0.571 -1.308,-0.285 z m 9.454,-7.954 c -0.437,-0.332 -1.019,-0.239 -1.358,0.191 -0.387,0.523 -0.774,1 -1.212,1.476 -0.339,0.43 -0.29,1 0.146,1.334 0.193,0.142 0.388,0.237 0.63,0.237 0.291,0 0.533,-0.096 0.728,-0.333 0.436,-0.476 0.824,-1 1.26,-1.524 0.291,-0.476 0.194,-1.05 -0.194,-1.381 z m -5.14,4.429 c -0.436,0.478 -0.92,0.905 -1.356,1.286 -0.389,0.335 -0.438,0.953 -0.097,1.335 0.193,0.189 0.435,0.333 0.728,0.333 0.241,0 0.484,-0.096 0.63,-0.24 0.484,-0.427 0.969,-0.856 1.454,-1.38 0.388,-0.381 0.388,-1 0,-1.334 -0.339,-0.381 -0.97,-0.381 -1.359,0 z"
           id="path368-3-9" />
      </g>
      <g
         id="g370-2"
         transform="matrix(-0.60934793,0,0,0.60934793,354.91347,138.23032)"
         style="fill:#f2f2f2">
        <path
           style="fill:#f2f2f2"
           inkscape:connector-curvature="0"
           d="m 837.622,335.077 c -0.872,-0.715 -2.083,-0.858 -3.055,-0.287 l -6.108,3.431 -2.376,-2.19 3.54,-0.477 c 0.824,-0.097 1.552,-0.574 1.987,-1.335 l 1.892,-3.332 1.26,0.331 c 1.407,0.335 2.86,-0.475 3.249,-1.905 0.339,-1.38 -0.485,-2.808 -1.939,-3.189 l -3.249,-0.811 c -1.163,-0.284 -2.375,0.238 -2.956,1.238 l -2.231,3.907 -3.49,0.475 c -0.049,-0.046 -0.098,-0.096 -0.194,-0.143 l 1.213,-1.713 c 0.145,-0.238 0.193,-0.478 0.145,-0.716 0.146,-0.237 0.194,-0.573 0.05,-0.857 -0.194,-0.476 -0.777,-0.714 -1.262,-0.476 -0.049,0 -0.049,0 -0.097,0.048 l -2.812,-2.288 c -0.437,-0.38 -0.97,-0.57 -1.552,-0.665 l -5.43,-1.811 c 0.726,-2.189 0.436,-4.666 -0.97,-6.667 -2.376,-3.381 -7.128,-4.238 -10.618,-1.905 -3.443,2.334 -4.315,7 -1.939,10.43 0.243,0.333 0.485,0.572 0.776,0.858 h -0.049 c -0.341,0.712 -0.097,1.333 0.437,1.857 l -2.716,0.713 -4.121,-4.049 c -1.018,-0.999 -2.617,-0.999 -3.636,0 -1.019,1.002 -1.019,2.573 0,3.573 l 5.14,5.096 c 0.096,0.096 0.241,0.238 0.387,0.334 0.631,0.381 1.358,0.524 2.086,0.334 l 6.254,-1.62 c 0.193,0.191 0.436,0.429 0.679,0.572 0.29,0.189 0.582,0.333 0.921,0.476 l 0.34,0.143 -1.212,3.239 -6.013,3 c -1.261,0.619 -1.794,2.143 -1.115,3.382 0.195,0.382 0.484,0.714 0.874,0.952 0.727,0.477 1.745,0.571 2.569,0.144 l 6.932,-3.43 c 0.582,-0.285 1.02,-0.763 1.262,-1.382 l 1.551,-4.189 6.837,2.428 7.369,6.812 c 0.097,0.095 0.193,0.189 0.34,0.236 0.824,0.572 1.891,0.621 2.811,0.097 l 6.207,-3.478 0.775,0.667 c 1.115,0.954 2.765,0.857 3.733,-0.238 0.97,-1.095 0.873,-2.716 -0.242,-3.669 z m -37.235,-15.859 c 0.291,-1.951 2.182,-3.333 4.22,-3.05 l 2.521,0.383 c 1.261,0.19 2.279,1 2.763,2.048 l -0.388,-0.049 c -0.146,-0.046 -0.291,0.049 -0.339,0.241 0,0.093 0.048,0.188 0.097,0.284 0.048,0 0.048,0.047 0.097,0.047 l 0.728,0.143 c 0.049,0.096 0.049,0.238 0.098,0.334 l -0.534,-0.096 c -0.146,-0.048 -0.291,0.047 -0.34,0.238 0,0.095 0.049,0.19 0.098,0.287 0.048,0 0.048,0.046 0.097,0.046 l 0.729,0.144 c 0,0.19 0,0.429 -0.05,0.619 -0.291,1.953 -2.182,3.333 -4.217,3.047 l -2.522,-0.381 c -1.99,-0.428 -3.348,-2.284 -3.058,-4.285 z m 40.436,-21.099 c -0.534,0.382 -1.067,0.809 -1.601,1.239 -0.389,0.333 -0.436,0.951 -0.096,1.331 0.192,0.239 0.483,0.334 0.727,0.334 0.242,0 0.436,-0.095 0.63,-0.237 0.485,-0.429 0.97,-0.81 1.454,-1.143 0.437,-0.285 0.534,-0.906 0.194,-1.333 -0.29,-0.382 -0.871,-0.475 -1.308,-0.191 z m -10.229,17.383 c 0.096,0 0.144,0.048 0.192,0.048 0.437,0 0.824,-0.286 0.922,-0.762 0.146,-0.714 0.339,-1.285 0.484,-1.81 0.146,-0.523 -0.146,-1.049 -0.679,-1.189 -0.533,-0.144 -1.066,0.141 -1.212,0.666 -0.146,0.523 -0.339,1.19 -0.484,1.904 -0.097,0.525 0.242,0.999 0.777,1.143 z m 21.574,-21.335 c -0.679,0.096 -1.31,0.142 -1.94,0.285 -0.533,0.096 -0.872,0.571 -0.822,1.095 0.095,0.478 0.484,0.811 0.969,0.811 h 0.146 c 0.63,-0.097 1.261,-0.19 1.89,-0.238 0.534,-0.049 0.922,-0.522 0.825,-1.049 -0.049,-0.571 -0.535,-0.953 -1.068,-0.904 z m -5.915,1.189 c -0.63,0.19 -1.261,0.476 -1.891,0.763 -0.485,0.238 -0.679,0.809 -0.485,1.286 0.146,0.334 0.534,0.571 0.873,0.571 0.146,0 0.291,-0.049 0.388,-0.095 0.581,-0.238 1.116,-0.477 1.697,-0.668 0.484,-0.189 0.774,-0.714 0.631,-1.189 -0.195,-0.572 -0.728,-0.858 -1.213,-0.668 z m -16.969,25.765 c 0.096,0 0.145,0.049 0.242,0.049 0.437,0 0.824,-0.285 0.921,-0.715 0.146,-0.571 0.29,-1.19 0.437,-1.905 0.097,-0.523 -0.194,-0.999 -0.728,-1.142 -0.533,-0.097 -1.018,0.189 -1.163,0.714 -0.147,0.713 -0.291,1.286 -0.437,1.856 -0.096,0.477 0.194,1.001 0.728,1.143 z m 3.054,-11.095 c 0.146,0.048 0.29,0.096 0.438,0.096 0.338,0 0.678,-0.191 0.872,-0.524 0.291,-0.573 0.582,-1.097 0.92,-1.62 0.292,-0.478 0.099,-1.048 -0.338,-1.285 -0.485,-0.286 -1.068,-0.096 -1.309,0.335 -0.341,0.569 -0.68,1.142 -0.972,1.712 -0.241,0.476 -0.095,1.048 0.389,1.286 z"
           id="path366-28" />
        <path
           style="fill:#f2f2f2"
           inkscape:connector-curvature="0"
           d="m 826.859,326.313 c 0.146,0.097 0.34,0.146 0.534,0.146 0.29,0 0.63,-0.146 0.823,-0.431 0.34,-0.522 0.679,-1.144 1.019,-1.81 0.193,-0.476 0,-1.049 -0.485,-1.239 -0.484,-0.188 -1.066,0 -1.261,0.477 -0.241,0.573 -0.534,1.097 -0.823,1.525 -0.389,0.428 -0.243,1.046 0.193,1.332 z m 8.436,-21.241 c 0.194,0.144 0.389,0.19 0.583,0.19 0.291,0 0.581,-0.143 0.775,-0.381 0.388,-0.478 0.775,-1 1.163,-1.429 0.34,-0.381 0.291,-0.999 -0.097,-1.333 -0.388,-0.333 -1.018,-0.286 -1.357,0.095 -0.437,0.476 -0.873,1.001 -1.261,1.523 -0.339,0.432 -0.242,1.002 0.194,1.335 z m 22.496,-11.809 c -0.581,0.144 -1.163,0.286 -1.842,0.379 -0.533,0.097 -0.872,0.571 -0.775,1.098 0.097,0.476 0.484,0.808 0.97,0.808 h 0.193 c 0.728,-0.141 1.358,-0.286 1.989,-0.428 0.532,-0.143 0.823,-0.667 0.677,-1.143 -0.145,-0.526 -0.677,-0.858 -1.212,-0.714 z m 21.236,-19.575 c -0.437,-0.286 -1.066,-0.19 -1.357,0.237 -0.389,0.524 -0.728,1.049 -1.114,1.573 -0.292,0.428 -0.194,1.048 0.241,1.333 0.146,0.095 0.34,0.19 0.533,0.19 0.292,0 0.631,-0.143 0.776,-0.428 0.387,-0.525 0.727,-1.049 1.114,-1.572 0.341,-0.429 0.244,-1.001 -0.193,-1.333 z m -3.344,4.761 c -0.437,-0.285 -1.067,-0.19 -1.358,0.238 -0.388,0.525 -0.728,1.049 -1.115,1.571 -0.291,0.43 -0.194,1.001 0.242,1.335 0.194,0.143 0.39,0.191 0.582,0.191 0.291,0 0.582,-0.146 0.776,-0.383 0.388,-0.523 0.775,-1.048 1.114,-1.572 0.292,-0.521 0.194,-1.093 -0.241,-1.38 z m -12.849,12.622 c -0.533,0.333 -1.066,0.619 -1.6,0.905 -0.484,0.237 -0.679,0.809 -0.437,1.286 0.193,0.332 0.533,0.523 0.872,0.523 0.146,0 0.292,-0.048 0.438,-0.097 0.581,-0.283 1.163,-0.619 1.745,-1 0.436,-0.285 0.581,-0.856 0.29,-1.332 -0.242,-0.428 -0.871,-0.571 -1.308,-0.285 z m 9.454,-7.954 c -0.437,-0.332 -1.019,-0.239 -1.358,0.191 -0.387,0.523 -0.774,1 -1.212,1.476 -0.339,0.43 -0.29,1 0.146,1.334 0.193,0.142 0.388,0.237 0.63,0.237 0.291,0 0.533,-0.096 0.728,-0.333 0.436,-0.476 0.824,-1 1.26,-1.524 0.291,-0.476 0.194,-1.05 -0.194,-1.381 z m -5.14,4.429 c -0.436,0.478 -0.92,0.905 -1.356,1.286 -0.389,0.335 -0.438,0.953 -0.097,1.335 0.193,0.189 0.435,0.333 0.728,0.333 0.241,0 0.484,-0.096 0.63,-0.24 0.484,-0.427 0.969,-0.856 1.454,-1.38 0.388,-0.381 0.388,-1 0,-1.334 -0.339,-0.381 -0.97,-0.381 -1.359,0 z"
           id="path368-9" />
      </g>
    </g>
  </g>
  <g
     fill="#03709C"
     id="g38">
    <circle
       cx="-151.5"
       cy="413.7"
       r="2.1"
       id="circle20"
       style="fill:#b3b3b3" />
    <circle
       cx="-4.7"
       cy="449.2"
       r="2.1"
       id="circle22"
       style="fill:#b3b3b3" />
    <circle
       cx="-51.3"
       cy="481.1"
       r="1.2"
       id="circle24"
       style="fill:#b3b3b3" />
    <circle
       cx="-63.3"
       cy="510.3"
       r="1.2"
       id="circle26"
       style="fill:#b3b3b3" />
    <circle
       cx="-119.8"
       cy="362"
       r=".9"
       id="circle28"
       style="fill:#b3b3b3" />
    <circle
       cx="-66.6"
       cy="345.5"
       r=".8"
       id="circle30"
       style="fill:#b3b3b3" />
    <circle
       cx="-18.5"
       cy="392"
       r="1.5"
       id="circle32"
       style="fill:#b3b3b3" />
    <circle
       cx="-44.2"
       cy="486.5"
       r="4.7"
       id="circle34" />
    <circle
       cx="-147.6"
       cy="418.8"
       r=".8"
       id="circle36"
       style="fill:#b3b3b3" />
  </g>
  <circle
     fill="#FFF"
     cx="-63.9"
     cy="422.5"
     r=".1"
     id="circle68" />
  <path
     style="fill:#000000"
     d="m 93.166954,-802.69571 c -8.645631,-1.90906 -15.257471,-10.18092 -15.213631,-19.03325 0.0254,-5.13557 2.6759,-11.48677 6.09612,-14.60791 4.076751,-3.72025 129.081247,-75.38735 133.602917,-76.59671 8.14631,-2.17882 18.20418,2.37822 21.75244,9.85561 3.90944,8.23852 2.63316,16.88863 -3.39235,22.99203 -2.32659,2.35664 -118.69116,70.30318 -129.58109,75.6638 -3.93302,1.93604 -9.206626,2.62243 -13.264406,1.72643 z"
     id="path624"
     inkscape:connector-curvature="0"
     sodipodi:nodetypes="cccssccc" />
  <circle
     cx="-64.5"
     cy="421.39999"
     r="74.129028"
     id="circle6"
     style="fill:#03709c;stroke-width:1.54114425" />
  <path
     style="fill:#ffffff;fill-opacity:1;stroke-width:0.21515343"
     d="m -63.915155,437.82168 c 0.03944,-0.0926 0.785523,-1.40769 1.657953,-2.92249 1.442496,-2.50459 1.563417,-2.80425 1.33441,-3.30687 -0.138505,-0.30399 -0.17458,-0.62746 -0.08016,-0.71883 0.282342,-0.27324 6.9024,-4.07148 7.096296,-4.07148 0.09844,0 0.692133,0.89558 1.319325,1.99017 1.100424,1.92049 1.137863,2.03913 1.069386,3.38867 -0.06378,1.25685 -0.20076,1.62186 -1.352494,3.60382 l -1.281529,2.20532 h -4.917452 c -2.704599,0 -4.885179,-0.0757 -4.845733,-0.16831 z"
     id="path568"
     inkscape:connector-curvature="0"
     sodipodi:nodetypes="csscsscscsc" />
  <path
     style="fill:#ffffff;fill-opacity:1;stroke-width:0.28940153"
     d="m -105.53062,430.49665 c -0.64117,-0.44909 -0.86123,-1.66571 -0.42172,-2.33148 0.11694,-0.17715 2.99751,-1.92612 6.40127,-3.88661 5.985425,-3.44748 6.213505,-3.55065 6.945636,-3.14171 0.771947,0.43117 1.146482,1.77913 0.687685,2.47499 -0.263827,0.40015 -12.244211,7.33532 -12.671631,7.33532 -0.16393,0 -0.58749,-0.20273 -0.94124,-0.45051 z m 74.74521,-3.05024 c -3.342208,-1.92541 -6.175786,-3.65097 -6.296839,-3.83457 -0.458798,-0.69586 -0.08426,-2.04382 0.687684,-2.47499 0.73213,-0.40894 0.960212,-0.30577 6.945637,3.14171 3.403755,1.96049 6.284326,3.70946 6.401266,3.88661 0.439511,0.66577 0.219454,1.88239 -0.421716,2.33148 -0.353755,0.24778 -0.777315,0.45051 -0.94124,0.45051 -0.163926,0 -3.032581,-1.57534 -6.374792,-3.50075 z m -68.787467,-39.71596 c -3.134243,-1.80278 -5.901643,-3.44626 -6.149783,-3.6522 -1.01705,-0.84406 -0.18127,-2.92489 1.16334,-2.89636 0.3058,0.006 3.29086,1.60184 6.633445,3.54517 5.832465,3.39095 6.081145,3.57205 6.169528,4.49283 0.112922,1.17641 -0.352731,1.79011 -1.357487,1.78908 -0.439708,-6.4e-4 -3.16385,-1.38318 -6.459043,-3.27852 z m 62.581711,2.8641 c -0.18952,-0.22836 -0.303139,-0.84696 -0.252485,-1.37466 0.08838,-0.92078 0.337064,-1.10188 6.169529,-4.49283 3.342587,-1.94333 6.350266,-3.53865 6.68373,-3.54517 1.345929,-0.0263 2.094474,2.05085 1.057759,2.93506 -1.241876,1.05918 -11.869662,6.8928 -12.557438,6.8928 -0.416081,0 -0.911571,-0.18684 -1.101095,-0.4152 z m -28.666439,-16.6595 c -0.547304,-0.54729 -0.578803,-0.96466 -0.578803,-7.66914 0,-6.70445 0.0315,-7.12183 0.578803,-7.66914 0.318342,-0.31834 0.839264,-0.57881 1.157605,-0.57881 0.318341,0 0.839264,0.26047 1.157605,0.57881 0.547305,0.54731 0.578804,0.96469 0.578804,7.66914 0,6.70448 -0.0315,7.12185 -0.578804,7.66914 -0.318341,0.31834 -0.839264,0.5788 -1.157605,0.5788 -0.318341,0 -0.839263,-0.26046 -1.157605,-0.5788 z"
     id="path568-3"
     inkscape:connector-curvature="0"
     sodipodi:nodetypes="ccsccsccccsccscccccccccccccsccscscscsc" />
  <path
     sodipodi:nodetypes="cccssccc"
     inkscape:connector-curvature="0"
     id="path622"
     d="m -78.961066,411.94944 c -1.860137,-0.41074 -3.282697,-2.19046 -3.273265,-4.09507 0.0055,-1.10494 0.575729,-2.47142 1.311601,-3.14295 0.877127,-0.80042 27.772274,-16.21984 28.745127,-16.48004 1.752706,-0.46878 3.916691,0.51168 4.680112,2.12047 0.841129,1.77254 0.566533,3.63365 -0.729876,4.94681 -0.500574,0.50704 -25.53681,15.12597 -27.879816,16.27933 -0.846203,0.41654 -1.980838,0.56422 -2.853883,0.37145 z"
     style="fill:#ffffff;fill-opacity:1;stroke-width:0.21515343" />
  <path
     style="fill:#ffffff;fill-opacity:1;stroke-width:0.21515343"
     d="m -78.341449,398.29877 c -1.920283,-0.60869 -3.224364,-2.61433 -2.958947,-4.55077 0.158702,-1.15785 0.7832,-2.26426 1.610557,-2.85339 1.144603,-0.81503 15.430301,-8.98549 16.147446,-9.23526 3.307218,-1.15183 6.560065,2.15888 5.317606,5.41222 -0.195031,0.51068 -0.633728,1.21148 -0.974884,1.55733 -0.986296,0.99989 -16.318704,9.71149 -17.33782,9.85105 -0.482518,0.0661 -1.275055,-0.0135 -1.803958,-0.18118 z"
     id="path624-6"
     inkscape:connector-curvature="0"
     sodipodi:nodetypes="cccssscc" />
  <path
     style="fill:#ffffff;fill-opacity:1;stroke-width:0.21515343"
     d="m -78.961067,424.85864 c -1.860137,-0.41074 -3.282697,-2.19046 -3.273265,-4.09507 0.0055,-1.10493 0.575729,-2.47142 1.311601,-3.14294 0.877127,-0.80042 27.772275,-16.21985 28.745128,-16.48004 1.752706,-0.46878 3.916691,0.51168 4.680112,2.12047 0.841129,1.77254 0.566533,3.63364 -0.729876,4.94681 -0.500574,0.50704 -25.536811,15.12597 -27.879817,16.27932 -0.846202,0.41655 -1.980838,0.56423 -2.853883,0.37145 z"
     id="path568-7"
     inkscape:connector-curvature="0"
     sodipodi:nodetypes="cccssccc" />
  <path
     style="fill:#ffffff;fill-opacity:1;stroke-width:0.21515343"
     d="m -77.483719,437.37537 c -0.240705,-0.33804 -0.886695,-1.47309 -1.435532,-2.52232 -0.91929,-1.75745 -0.990796,-2.00568 -0.907902,-3.15168 0.173693,-2.40129 -0.185486,-2.13675 14.132261,-10.40864 9.31219,-5.38001 13.028811,-7.42036 13.699896,-7.521 2.657336,-0.39849 5.004548,1.83725 4.779388,4.5524 -0.19023,2.29393 -0.123193,2.24285 -11.864021,9.03834 -5.781648,3.34636 -10.553085,6.12529 -10.603197,6.1754 -0.05011,0.0501 0.444496,1.0188 1.099124,2.15263 0.654628,1.13384 1.190233,2.11507 1.190233,2.18051 0,0.0654 -2.171836,0.11898 -4.826302,0.11898 h -4.8263 z"
     id="path568-5"
     inkscape:connector-curvature="0"
     sodipodi:nodetypes="ccssssscssscc" />
  <path
     style="fill:#ffffff;stroke-width:0.21515343"
     d="m -78.271108,450.87523 c -0.245626,-0.47498 -0.31034,-1.70156 -0.31034,-5.88207 v -5.28195 h 12.919394 12.919393 l -0.06398,5.58756 -0.06398,5.58755 -1.29092,1.30619 c -2.232594,2.09808 -4.533565,4.78763 -5.809143,4.73064 l -5.701566,-0.0122 -5.361947,-0.007 c -1.493165,0.20516 -5.802363,-3.53063 -7.236919,-6.02914 z"
     id="path568-35"
     inkscape:connector-curvature="0"
     sodipodi:nodetypes="cscccccccccc" />
  <path
     style="fill:#ffffff;stroke-width:0.25176325"
     d="m -67.965475,463.63292 c -2.436842,-0.75583 -3.800724,-2.35073 -3.804332,-4.44871 l -0.0019,-0.98814 h 6.093833 6.093837 v 1.22442 c 0,1.83181 -1.176399,3.25636 -3.320695,4.02117 -1.887466,0.67321 -3.331188,0.72777 -5.060944,0.19126 z"
     id="path568-35-6"
     inkscape:connector-curvature="0"
     sodipodi:nodetypes="cccccsccc" />
  <path
     style="fill:#ffffff;fill-opacity:1;stroke-width:0.27719805"
     d="m -66.087551,484.14269 c -0.454576,-0.60454 -0.480736,-1.06557 -0.480736,-8.47132 0,-7.40572 0.02616,-7.86675 0.480736,-8.47131 0.264401,-0.35164 0.697063,-0.63935 0.961467,-0.63935 0.264405,0 0.697066,0.28771 0.961468,0.63935 0.454574,0.60456 0.480736,1.06559 0.480736,8.47131 0,7.40575 -0.02616,7.86678 -0.480736,8.47132 -0.264402,0.35163 -0.697063,0.63934 -0.961468,0.63934 -0.264404,0 -0.697066,-0.28771 -0.961467,-0.63934 z"
     id="path568-3-8"
     inkscape:connector-curvature="0"
     sodipodi:nodetypes="cscscscsc" />
  <path
     style="fill:#ffffff;fill-opacity:1;stroke-width:0.27719805"
     d="m -61.562402,482.20713 c -0.454577,-0.60453 -0.480737,-1.06556 -0.480737,-8.47131 0,-7.40572 0.02616,-7.86675 0.480737,-8.47131 0.264402,-0.35164 0.697064,-0.63935 0.961466,-0.63935 0.264405,0 0.697065,0.28771 0.96147,0.63935 0.454574,0.60456 0.480736,1.06559 0.480736,8.47131 0,7.40575 -0.02616,7.86678 -0.480736,8.47131 -0.264405,0.35164 -0.697065,0.63935 -0.96147,0.63935 -0.264402,0 -0.697064,-0.28771 -0.961466,-0.63935 z"
     id="path568-3-8-7"
     inkscape:connector-curvature="0"
     sodipodi:nodetypes="cscscscsc" />
  <path
     style="fill:#ffffff;fill-opacity:1;stroke-width:0.27719805"
     d="m -70.712355,482.20713 c -0.454576,-0.60453 -0.480736,-1.06556 -0.480736,-8.47131 0,-7.40572 0.02616,-7.86675 0.480736,-8.47131 0.264401,-0.35164 0.697064,-0.63935 0.961467,-0.63935 0.264405,0 0.697066,0.28771 0.961469,0.63935 0.454574,0.60456 0.480736,1.06559 0.480736,8.47131 0,7.40575 -0.02616,7.86678 -0.480736,8.47131 -0.264403,0.35164 -0.697064,0.63935 -0.961469,0.63935 -0.264403,0 -0.697066,-0.28771 -0.961467,-0.63935 z"
     id="path568-3-8-9"
     inkscape:connector-curvature="0"
     sodipodi:nodetypes="cscscscsc" />
  <path
     style="fill:#ffffff;fill-opacity:1;stroke-width:0.28940153"
     d="m -111.83031,407.08469 c -0.86171,-0.86172 -0.89533,-1.41988 -0.13154,-2.18367 0.54774,-0.54774 0.96467,-0.5788 7.76899,-0.5788 6.598192,0 7.229616,0.0436 7.669138,0.52924 0.644005,0.71162 0.60392,1.66101 -0.09985,2.36477 -0.546709,0.54671 -0.96467,0.57881 -7.537588,0.57881 h -6.95879 z m 79.453879,0.13154 c -0.722289,-0.72229 -0.744129,-1.78648 -0.04956,-2.41505 0.462361,-0.41844 1.431515,-0.47896 7.669142,-0.47896 6.754032,0 7.171182,0.0313 7.718703,0.5788 0.763792,0.76379 0.730168,1.32195 -0.131547,2.18367 l -0.710349,0.71035 h -6.958791 c -6.572922,0 -6.990886,-0.0321 -7.537595,-0.57881 z M -82.237223,378.4404 c -0.227961,-0.22794 -1.955856,-3.10664 -3.83977,-6.39708 -3.323927,-5.80554 -3.412637,-6.00526 -2.997636,-6.74821 0.536221,-0.95994 1.955762,-1.18463 2.640219,-0.41789 0.255548,0.28627 1.909332,3.02364 3.675081,6.08302 3.171052,5.49425 3.651035,6.75949 2.863169,7.54736 -0.476089,0.47609 -1.836836,0.43705 -2.341063,-0.0672 z m 33.133385,0.0672 c -0.787868,-0.78787 -0.307882,-2.05311 2.863168,-7.54736 1.765749,-3.05938 3.419534,-5.79675 3.67508,-6.08302 0.684459,-0.76674 2.103999,-0.54205 2.640219,0.41789 0.415003,0.74295 0.326291,0.94267 -2.997636,6.74821 -1.883913,3.29044 -3.611808,6.16914 -3.83977,6.39708 -0.504227,0.50425 -1.864973,0.54329 -2.341061,0.0672 z"
     id="path568-3-2"
     inkscape:connector-curvature="0"
     sodipodi:nodetypes="ssscsscsscssccsscccccccccccccc" />
  <g
     id="g364"
     transform="rotate(90,-63.499996,420.39999)">
    <g
       transform="matrix(0.66177344,0.66177345,-0.66177345,0.66177344,262.86054,183.74269)"
       id="g350">
      <path
         d="m -101.10708,336.51747 c 4.1168,-7.13049 1.645568,-16.35326 -5.48493,-20.47005 -7.13048,-4.1168 -16.35326,-1.64557 -20.47004,5.48493 -4.11681,7.13049 -1.64558,16.35327 5.48492,20.47005 7.13049,4.1168 16.35326,1.64558 20.47005,-5.48493 z m -14.02695,-19.50724 c 0.24706,-0.42779 0.69694,-0.54837 1.12473,-0.30139 0.42776,0.24705 0.54835,0.69693 0.30137,1.12475 -0.24706,0.42778 -0.69693,0.54835 -1.12473,0.30136 -0.42778,-0.24707 -0.54836,-0.69693 -0.30137,-1.12472 z m 4.062,9.7609 c 0.24706,-0.42779 0.69693,-0.54836 1.12475,-0.30138 0.42776,0.24706 0.54835,0.69693 0.30135,1.12474 -0.24706,0.42776 -0.69693,0.54835 -1.12472,0.30137 -0.28527,-0.16464 -0.54836,-0.69694 -0.30138,-1.12473 z m -14.3906,2.52992 c 0.57634,-0.99828 1.92601,-1.35991 2.92428,-0.78356 0.99826,0.57635 1.35993,1.92601 0.78359,2.9243 -0.57637,0.99826 -1.92605,1.3599 -2.92432,0.78355 -0.99825,-0.57635 -1.3599,-1.92603 -0.78355,-2.92429 z m 10.52081,4.17274 c 1.07036,-1.85393 3.31984,-2.45666 5.17376,-1.3863 1.85392,1.07037 2.45667,3.31982 1.3863,5.17375 -1.07037,1.85394 -3.31983,2.45666 -5.17375,1.38629 -1.85393,-1.07035 -2.45667,-3.3198 -1.38631,-5.17374 z"
         id="path18"
         style="fill:#03709c;fill-opacity:1;stroke-width:1.64671695"
         inkscape:connector-curvature="0" />
      <path
         d="m -134.43498,497.99456 c 0.11644,1.04797 3.37677,1.51372 7.68507,0.93152 l 2.91101,2.67813 0.11644,0.11644 0.46577,1e-5 c 0,0.23288 0.23287,0.69864 0.11643,0.81507 0.11644,0.11644 0.23289,0.23289 0.58221,0.11645 0.23288,0 0.46576,-0.23288 0.46576,-0.23288 l -0.11644,-0.81509 c 0.23287,0 0.34931,-0.11644 0.46576,-0.23288 l 1.51372,-3.37677 c 4.54119,-1.04796 7.80152,-2.67813 7.56864,-3.84253 0,-0.23289 -0.11644,-0.34933 -0.23288,-0.46577 -1.39729,-1.63017 -4.42474,-3.26033 -7.80151,-3.60966 -0.34933,-0.5822 -0.69864,-1.1644 -1.16441,-1.63016 l 0.46576,-2.56169 -0.34932,-0.11644 0.23289,-0.93152 -0.34933,-0.11645 1.63016,-1.86304 -0.58219,-0.11644 -1.04797,1.28085 0.23288,-1.39729 -2.67812,-0.5822 -0.34934,1.51372 -0.58219,-1.7466 -0.58221,-0.11645 0.69865,2.09593 -0.34932,-0.11644 -0.23289,0.93152 h -0.46575 l -1.16441,4.65763 c 0.11644,0.11644 0.34932,0.5822 0.46576,0.93152 -3.95897,1.39729 -6.63711,4.54118 -7.56863,7.33575 0,0.23288 -0.11644,0.34932 0,0.46576 z m 12.69201,0.11644 c 0.34932,-0.11644 0.5822,-0.11644 0.93153,-0.23288 l -0.93153,2.32881 -0.34932,0.34932 -0.11644,-0.11644 c 0,-0.46576 0.23288,-1.39728 0.46576,-2.32881 z m -3.60966,-8.26727 -0.34931,-0.58221 1.1644,-0.69864 0.69864,1.1644 c -0.46576,10e-6 -0.81508,0.11645 -1.04796,0.11645 z m 3.60966,-0.11644 h -0.46576 v -0.46577 z m -1.51372,8.73303 c 0.34931,-0.11644 0.5822,-0.11643 0.93152,-0.23287 l -0.46576,2.09592 c -0.11644,-0.11644 -0.34933,-0.11644 -0.34933,-0.11644 l -0.23287,0.23288 -0.93152,-1.86305 c 0.34931,-0.11644 0.81507,-0.11644 1.04796,-0.11644 z m -0.34932,2.21237 -0.11644,0.11644 c -0.11645,0.11645 -0.46577,0 -0.46577,0 l -2.09593,-1.86305 c 0.46576,10e-6 1.04797,-0.11644 1.51372,-0.11644 z m 0.58219,-12.22625 v 1.39729 h -0.46575 l -0.81509,-1.28085 0.69864,-0.46576 c 0.23289,0 0.34933,0.11644 0.5822,0.34932 z m -1.04796,-1.97949 1.04796,0.11645 v 0.69863 c -0.46575,-0.23287 -0.81508,-0.34932 -1.28084,-0.58219 z m -0.81509,1.04797 1.04797,0.34932 -0.5822,0.34932 z m -0.11643,0.34932 0.34932,0.5822 -1.1644,0.69864 -0.11645,-0.11644 z"
         id="path4"
         inkscape:connector-curvature="0"
         style="fill:#03709c;stroke-width:1.64671695" />
      <path
         style="fill:#03709c;stroke-width:1.57976651"
         inkscape:connector-curvature="0"
         d="m -168.74935,401.40947 0.32148,-1.97949 0.32151,0.11644 -0.42866,1.86305 m 0.75015,-4.77406 0.96449,-3.84254 0.42864,0.23288 -0.96447,3.60966 m 1.39314,-6.63711 1.17882,-3.60966 0.53581,0.11644 -1.28597,3.7261 m 1.60747,-6.63711 1.5003,-3.49321 0.643,0.23288 -1.50031,3.49321 m 2.03613,-6.40422 1.50031,-3.49322 0.85731,0.46577 -1.60747,3.37677 m 2.14329,-6.52067 1.92897,-3.26033 0.75015,0.5822 -1.92897,3.26034 m 2.57196,-6.2878 2.1433,-3.26032 0.85731,0.69864 -2.14329,3.26033 m 2.78628,-6.28779 2.35763,-3.02745 0.96448,0.81509 -2.35762,3.02745 m 3.21493,-6.0549 2.35764,-2.79457 1.07164,0.93152 -2.57195,2.79457 m 3.42926,-5.82202 2.57196,-2.79457 1.07165,1.1644 -2.67912,2.67813 m 3.75076,-5.70558 2.78628,-2.5617 0.85731,1.3973 -2.67911,2.44525 m 3.85794,-5.58915 3.0006,-2.32881 0.96448,1.51373 -2.89345,2.21237 m 4.17944,-5.23983 3.10776,-1.97948 0.96449,1.51373 -3.10777,1.97948 m 4.50092,-5.12337 3.10777,-1.74661 0.96449,1.7466 -3.21495,1.86305 m 16.7177,-9.781 3.3221,-1.04796 0.64299,2.32881 -3.42927,0.93152 m 5.572564,-3.95898 3.53644,-0.81508 0.428657,2.32881 -3.53644,0.81508 m 5.786899,-3.72609 3.429271,-0.46576 0.428662,2.56168 -3.643614,0.46577 m 6.108402,-3.37678 3.429268,-0.23288 0.214328,2.56169 -3.536432,0.34933 m 6.215548,-3.02746 h 3.429275 l 0.107163,2.67813 H -80.2313 m 6.429882,-2.56169 3.643595,0.23288 -0.214327,2.79457 -3.643596,-0.23288 m 6.537046,-2.21236 3.536438,0.58219 -0.428661,2.79458 -3.536431,-0.5822 m 6.751379,-1.74661 c 0,0 0.857309,0.23288 1.821794,0.34932 0.857316,0.23288 1.821801,0.34932 1.821801,0.34932 l -0.642988,3.02746 -1.714637,-0.46577 -1.714638,-0.46576 z m 6.215541,1.39728 3.429275,1.16441 -0.750146,2.91101 -3.536437,-1.04797 m 6.965706,-1.04796 3.322104,1.28084 -0.964485,3.14391 -3.429268,-1.3973 m 6.965706,-0.5822 3.322105,1.51373 -1.285977,3.02745 -3.21494,-1.63017 m 6.965706,-0.11643 3.322111,1.7466 -1.607474,3.1439 -3.107777,-1.74661 m 7.180034,0.11644 2.893444,1.97948 -1.607468,3.14389 -3.000614,-2.09593 m 7.072871,0.69865 2.89345,2.21236 -1.928967,3.02746 -3.000614,-2.32881 m 7.180036,1.04796 2.786281,2.5617 -2.250454,2.911 -2.786286,-2.56168 m 7.072874,1.63016 2.679117,2.67813 -2.464788,2.67813 -2.571952,-2.56169 m 6.965705,1.97949 2.4647901,2.91101 -2.5719551,2.56169 -2.464788,-2.91101 m 6.8585372,2.5617 2.2504626,3.14388 -2.7862832,2.32882 -2.2504613,-2.91101 m 6.6442118,3.02745 2.036134,3.14389 -2.7862846,2.09593 -2.0361275,-3.1439 m 6.32271636,3.60966 1.82179964,3.37677 -2.78627869,1.86305 -1.92897041,-3.26033 m 6.1083898,4.07541 1.5003081,3.49322 -2.78628,1.63016 -1.71463665,-3.49321 m 5.78689315,4.65762 1.3931386,3.60965 -2.8934462,1.28085 -1.393138,-3.60966 m 5.1439042,5.12338 1.1788095,3.60966 -2.6791183,1.04797 -1.1788102,-3.60966 m 4.6080851,5.4727 0.964483,3.84253 -2.5719569,0.69865 -1.071646,-3.7261 m 4.1794239,5.93847 0.750155,3.84253 -2.464786,0.5822 -0.7501549,-3.84253 m 3.5364339,6.17134 0.428656,3.95898 -2.14329,0.23288 -0.535826,-3.84254 m 2.786281,6.52068 0.214333,3.95897 -1.821803,0.11644 -0.321491,-3.84254 m 2.143296,6.75355 -0.107166,3.84253 h -1.500305 l -0.107169,-3.84253 m 1.393141,6.86999 -0.321494,3.84253 -1.178813,-0.11643 0.214329,-3.95898 m 0.535827,6.86998 -0.642986,3.95898 -0.750155,-0.11644 0.428657,-3.95897 m -0.214328,6.98642 -0.428661,1.86305 h -0.428657 l 0.321497,-1.97949"
         id="path58" />
      <g
         id="g62"
         transform="matrix(1.1644047,1.1169674,-1.1644047,1.1169674,495.98836,17.284323)">
        <path
           style="fill:#03709c"
           inkscape:connector-curvature="0"
           d="m 4.8845516,453.55953 -0.5,1.1 -0.2,-0.1 0.5,-1.1 m -1,2.8 -1.1,2.1 -0.3,-0.2 1.1,-2.1 m -1.7,3.8 -1.19999998,2 -0.40000001,-0.2 1.29999999,-2 m -1.89999999,3.7 -1.40000001,1.9 -0.4,-0.2 1.40000001,-1.9 m -2.10000001,3.6 -1.5,1.8 -0.4,-0.4 1.5,-1.8 m -2.3,3.5 -1.6,1.8 -0.5000002,-0.5 1.7000002,-1.7 m -2.5000002,3.4 -1.7000004,1.6 -0.5,-0.5 1.8000002,-1.6 m -2.7000002,3.3 -1.8,1.5 -0.5,-0.7 1.8,-1.4 m -2.8,3.1 -1.9,1.4 -0.5,-0.7 2,-1.3 m -3,3 -2.1,1.2 -0.4,-0.8 2,-1.2 m -3.1,2.9 -2.1,1 -0.5,-0.9 2.1,-1 m -3.3,2.7 -2.1,0.9 -0.5,-1 2.2,-0.9 m -3.4,2.6 -2.3,0.8 -0.3,-1.2 2.2,-0.7 m -3.6,2.4 -2.3,0.6 -0.3,-1.2 2.3,-0.6 m -3.7,2.2 -2.4,0.5 -0.2,-1.3 2.3,-0.4 m -3.8,2 -2.4,0.3 -0.2,-1.4 2.4,-0.2 m -4,1.8 -2.4,0.1 v -1.4 l 2.3,-0.1 m -4.1,1.5 h -2.3 v -1.4 h 2.3 m -4.2,1.4 -2.3,-0.2 0.1,-1.6 2.4,0.3 m -4.3,1.1 -2.4,-0.4 0.3,-1.5 2.3,0.3 m -4.4,0.9 -2.3,-0.5 0.4,-1.6 2.3,0.5 m -4.4,0.7 -2.3,-0.7 0.5,-1.7 2.2,0.7 m -4.5,0.4 -2.2,-0.8 0.6,-1.7 2.3,0.9 m -4.6,0.1 c 0,0 -0.5,-0.2 -1.1,-0.5 -0.5,-0.2 -1.1,-0.5 -1.1,-0.5 l 0.8,-1.7 c 0,0 0.5,0.2 1.1,0.5 0.5,0.2 1.1,0.5 1.1,0.5 z m -3.8,-1.7 -2.1,-1.1 0.9,-1.7 2.1,1.1 m -4.6,-0.3 -2,-1.3 1.1,-1.7 2,1.3 m -4.6,-0.6 -2,-1.4 1.3,-1.6 1.9,1.4 m -4.6,-0.9 -1.8,-1.5 1.3,-1.6 1.8,1.5 m -4.5,-1.1 -1.7,-1.6 1.5,-1.6 1.7,1.6 m -4.5,-1.4 -1.6,-1.7 1.6,-1.5 1.6,1.7 m -4.399997,-1.6 -1.499997,-1.9 1.799997,-1.4 1.499997,1.9 m -4.399991,-1.9 -1.4,-2 2,-1.3 1.299994,1.9 m -4.199994,-2.2 -1.2,-2 2,-1.2 1.2,2.1 m -4.1,-2.5 -1.1,-2.1 2.1,-1.1 1.1,2.1 m -3.9,-2.7 -0.9,-2.2 2.1,-0.9 0.9,2.2 m -3.7,-3 -0.7,-2.3 2.1,-0.7 0.8,2.2 m -3.4,-3.3 -0.6,-2.3 2.1,-0.5 0.6,2.3 m -3.1,-3.6 -0.4,-2.3 2,-0.4 0.5,2.3 m -2.8,-3.7 -0.2,-2.4 1.9,-0.2 0.3,2.4 m -2.3,-4 -0.1,-2.3 1.7,-0.1 0.2,2.3 m -1.9,-4.1 0.1,-2.3 h 1.5 l 0.1,2.4 m -1.5,-4.3 0.2,-2.3 1.4,0.1 -0.1,2.4 m -1,-4.3 0.4,-2.3 1.2,0.2 -0.3,2.3 m -0.5,-4.3 0.6,-2.3 0.9,0.2 -0.4,2.3 m 0,-4.2 0.7,-2.3 0.7,0.2 -0.6,2.3 m 0.5,-4.2 0.9,-2.1 0.5,0.1 -0.8,2.3 m 1.1,-4.1 0.5,-1.1 0.2,0.1 -0.4,1.1"
           id="path60" />
      </g>
      <g
         id="g66"
         transform="matrix(1.1644047,1.1644047,-1.1355807,1.1355807,491.24749,23.931575)">
        <path
           style="fill:#03709c"
           inkscape:connector-curvature="0"
           d="m -69.5,351.5 1.1,-0.1 v 0.2 l -1.1,0.1 m 2.9,-0.5 h 2.4 v 0.3 h -2.4 m 4.2,-0.3 2.3,0.1 v 0.4 l -2.4,-0.2 m 4.2,-0.1 2.3,0.2 v 0.5 l -2.4,-0.3 m 4.2,0.1 2.3,0.4 -0.1,0.6 -2.3,-0.5 m 4.2,0.3 2.3,0.6 -0.2,0.6 -2.3,-0.6 m 4.2,0.4 2.3,0.8 -0.3,0.7 -2.2,-0.8 m 4.2,0.7 2.2,0.9 -0.4,0.7 -2.1,-0.9 m 4.1,0.9 2.1,1 -0.4,0.8 -2.1,-1.1 m 4.1,1.2 2.1,1.1 -0.5,0.9 -2,-1.3 m 4,1.4 2,1.3 -0.6,0.8 -1.9,-1.3 m 4,1.5 1.8,1.5 -0.7,0.8 -1.8,-1.4 m 3.9,1.7 1.8,1.6 -0.8,0.9 -1.7,-1.6 m 3.8,1.9 1.7,1.7 -0.9,0.9 -1.7,-1.7 m 8.9,8.7 1.3,2 -1.2,0.8 -1.2,-2 m 3.4,2.8 1.1,2 -1.3,0.7 -1.1,-2 m 3.2,3 1,2.1 -1.4,0.6 -0.9,-2.1 m 3,3.2 0.9,2.2 -1.5,0.5 -0.8,-2.2 m 2.9,3.4 0.7,2.3 -1.6,0.4 -0.7,-2.2 m 2.8,3.5 0.5,2.3 -1.7,0.4 -0.5,-2.3 m 2.6,3.7 0.4,2.4 -1.8,0.2 -0.3,-2.3 m 2.3,3.9 c 0,0 0.1,0.6 0.1,1.2 0.1,0.6 0.1,1.2 0.1,1.2 l -1.8,0.1 c 0,0 0,-0.6 -0.1,-1.2 -0.1,-0.6 -0.1,-1.2 -0.1,-1.2 z m 0.3,4.2 0.1,2.3 -1.9,0.1 v -2.4 m 1.9,4.2 -0.1,2.3 -2,-0.1 0.2,-2.3 m 1.7,4.3 -0.3,2.3 -2,-0.2 0.3,-2.4 m 1.5,4.4 -0.4,2.4 -2.1,-0.4 0.4,-2.4 m 1.3,4.6 -0.6,2.3 -2.1,-0.6 0.6,-2.3 m 1,4.6 -0.7,2.3 -2.2,-0.7 0.8,-2.3 m 0.7,4.7 -0.9,2.2 -2.1,-0.9 0.9,-2.1 m 0.5,4.7 -1,2.1 -2.2,-1 1.1,-2.1 m 0.2,4.8 -1.2,2 -2,-1.2 1.1,-2 m -0.1,4.8 -1.3,1.9 -2,-1.3 1.4,-1.9 m -0.5,4.7 -1.5,1.9 -1.8,-1.4 1.5,-1.9 m -0.9,4.7 -1.6,1.7 -1.6,-1.5 1.5,-1.7 m -1.2,4.5 -1.7,1.7 -1.5,-1.5 1.7,-1.7 m -1.6,4.4 -1.8,1.5 -1.3,-1.5 1.8,-1.6 m -1.9,4.2 -2,1.4 -1.1,-1.5 1.9,-1.5 m -2.3,4 -2,1.2 -0.9,-1.4 1.9,-1.3 m -2.6,3.6 -2.1,1.1 -0.8,-1.4 2.1,-1.1 m -2.9,3.3 -2.2,0.9 -0.6,-1.2 2.1,-1 m -3.2,2.9 -2.2,0.8 -0.5,-1.1 2.2,-0.9 m -3.5,2.5 -2.2,0.7 -0.3,-1 2.2,-0.7 m -3.7,2.1 -2.3,0.4 -0.2,-0.7 2.3,-0.6 m -3.9,1.6 -2.3,0.3 -0.1,-0.5 2.3,-0.4 m -4.1,1.1 h -1.2 v -0.2 l 1.2,-0.2"
           id="path64" />
      </g>
      <path
         d="m 53.032067,435.59857 c 2.328808,-2.09592 3.493218,-5.35626 2.44525,-8.50015 -1.047961,-3.1439 -3.842535,-5.23982 -7.102868,-5.4727 -1.397288,-3.26033 -2.794571,-5.58915 -3.958976,-6.75355 -0.698642,-0.69864 -1.513723,-1.04797 -2.095928,-0.69864 -1.280844,0.34932 -1.630167,2.32881 -1.047964,5.93846 0.232879,1.16441 0.349318,2.44525 0.698645,3.72609 -2.328808,2.09593 -3.493219,5.35627 -2.44525,8.50016 1.04796,3.14389 3.842536,5.23982 7.102867,5.4727 1.397288,3.26033 2.794572,5.58914 3.958976,6.75355 0.698643,0.69864 1.513724,1.04797 2.095928,0.69864 1.979489,-0.5822 1.397287,-5.35626 0.34932,-9.66456 z m -9.897441,-19.67843 c 0.931524,0.93152 2.095932,2.79456 3.376779,5.70557 -0.465767,10e-6 -0.931525,0.23289 -1.513731,0.34933 -0.465758,0.23288 -0.815084,0.34932 -1.280843,0.5822 -0.815083,-3.60965 -0.93152,-5.82203 -0.582205,-6.6371 z m 8.849479,27.24706 c -0.815084,-0.81508 -1.979485,-2.67813 -3.260331,-5.58914 0.465759,0 0.931525,-0.23288 1.513723,-0.34932 0.465766,-0.23288 0.815084,-0.34932 1.280843,-0.5822 0.698643,3.49321 0.815087,5.70558 0.582205,6.6371 z"
         id="path82"
         inkscape:connector-curvature="0"
         style="fill:#03709c;stroke-width:1.64671695" />
    </g>
    <rect
       y="310.39999"
       x="-173.5"
       height="220"
       width="220"
       id="rect352"
       style="opacity:1;vector-effect:none;fill:none;fill-opacity:1;stroke:none;stroke-width:8.65060997;stroke-linecap:round;stroke-linejoin:round;stroke-miterlimit:4;stroke-dasharray:none;stroke-dashoffset:0;stroke-opacity:1;paint-order:markers stroke fill" />
  </g>
</svg>
